0:0:0:0:0:0:0:1 - - [20/Dec/2017:14:09:17 +0100] "GET /revision/servlet/Accueil HTTP/1.1" 200 245
0:0:0:0:0:0:0:1 - - [20/Dec/2017:14:09:41 +0100] "GET /revision/servlet/Accueil HTTP/1.1" 200 245
0:0:0:0:0:0:0:1 - - [20/Dec/2017:14:09:42 +0100] "GET /revision/servlet/Accueil HTTP/1.1" 200 245
0:0:0:0:0:0:0:1 - - [20/Dec/2017:14:09:43 +0100] "GET /revision/servlet/Accueil HTTP/1.1" 200 245
0:0:0:0:0:0:0:1 - - [20/Dec/2017:14:09:43 +0100] "GET /revision/servlet/Accueil HTTP/1.1" 200 245
0:0:0:0:0:0:0:1 - - [20/Dec/2017:14:09:44 +0100] "GET /revision/servlet/Accueil HTTP/1.1" 200 245
0:0:0:0:0:0:0:1 - - [20/Dec/2017:14:09:44 +0100] "GET /revision/servlet/Accueil HTTP/1.1" 200 245
0:0:0:0:0:0:0:1 - - [20/Dec/2017:14:09:45 +0100] "GET /revision/servlet/Accueil HTTP/1.1" 200 245
0:0:0:0:0:0:0:1 - - [20/Dec/2017:14:09:45 +0100] "GET /revision/servlet/Accueil HTTP/1.1" 200 245
0:0:0:0:0:0:0:1 - - [20/Dec/2017:14:09:46 +0100] "GET /revision/servlet/Accueil HTTP/1.1" 200 245
0:0:0:0:0:0:0:1 - - [20/Dec/2017:14:09:46 +0100] "GET /revision/servlet/Accueil HTTP/1.1" 200 245
0:0:0:0:0:0:0:1 - - [20/Dec/2017:14:09:47 +0100] "GET /revision/servlet/Accueil HTTP/1.1" 200 245
0:0:0:0:0:0:0:1 - - [20/Dec/2017:14:09:49 +0100] "GET /revision/servlet/Accueil HTTP/1.1" 200 262
0:0:0:0:0:0:0:1 - - [20/Dec/2017:14:10:02 +0100] "GET /revision/ HTTP/1.1" 200 19
0:0:0:0:0:0:0:1 - - [20/Dec/2017:14:10:05 +0100] "GET /revision HTTP/1.1" 302 -
0:0:0:0:0:0:0:1 - - [20/Dec/2017:14:13:06 +0100] "GET /revision/ HTTP/1.1" 200 321
0:0:0:0:0:0:0:1 - - [20/Dec/2017:14:19:08 +0100] "GET /revision/ HTTP/1.1" 200 710
0:0:0:0:0:0:0:1 - - [20/Dec/2017:14:19:09 +0100] "GET /revision/ HTTP/1.1" 304 -
0:0:0:0:0:0:0:1 - - [20/Dec/2017:14:22:46 +0100] "GET /revision/ HTTP/1.1" 200 921
0:0:0:0:0:0:0:1 - - [20/Dec/2017:14:32:27 +0100] "GET /revision/ HTTP/1.1" 200 916
0:0:0:0:0:0:0:1 - - [20/Dec/2017:14:32:28 +0100] "GET /revision/ HTTP/1.1" 304 -
0:0:0:0:0:0:0:1 - - [20/Dec/2017:14:32:54 +0100] "GET /revision/ HTTP/1.1" 200 921
0:0:0:0:0:0:0:1 - - [20/Dec/2017:14:32:55 +0100] "GET /revision/ HTTP/1.1" 304 -
0:0:0:0:0:0:0:1 - - [20/Dec/2017:14:35:10 +0100] "GET /revision/ HTTP/1.1" 200 961
0:0:0:0:0:0:0:1 - - [20/Dec/2017:14:35:30 +0100] "GET /revision/ HTTP/1.1" 200 981
0:0:0:0:0:0:0:1 - - [20/Dec/2017:14:36:10 +0100] "GET /revision/ HTTP/1.1" 200 1067
0:0:0:0:0:0:0:1 - - [20/Dec/2017:14:36:23 +0100] "GET /servlet/Login?login=C+sale&mdp=Celisse HTTP/1.1" 404 1031
0:0:0:0:0:0:0:1 - - [20/Dec/2017:14:53:53 +0100] "GET /revision/ HTTP/1.1" 304 -
0:0:0:0:0:0:0:1 - - [20/Dec/2017:14:53:53 +0100] "GET /revision/ HTTP/1.1" 304 -
0:0:0:0:0:0:0:1 - - [20/Dec/2017:14:53:55 +0100] "GET /revision/ HTTP/1.1" 304 -
0:0:0:0:0:0:0:1 - - [20/Dec/2017:14:54:01 +0100] "GET /servlet/Inscription?login=thibaut&mdp=depommier&pseudo=enferer HTTP/1.1" 404 1043
0:0:0:0:0:0:0:1 - - [20/Dec/2017:14:54:32 +0100] "GET /revision/servlet/Inscription?login=thibaut&mdp=depommier&pseudo=enferer HTTP/1.1" 302 -
0:0:0:0:0:0:0:1 - - [20/Dec/2017:14:54:32 +0100] "GET /revision/servlet/Accueil.html HTTP/1.1" 404 1063
0:0:0:0:0:0:0:1 - - [20/Dec/2017:14:54:39 +0100] "GET /revision/servlet/Inscription HTTP/1.1" 302 -
0:0:0:0:0:0:0:1 - - [20/Dec/2017:14:54:39 +0100] "GET /revision/servlet/Accueil.html HTTP/1.1" 404 1063
0:0:0:0:0:0:0:1 - - [20/Dec/2017:14:55:37 +0100] "GET /servlet/Inscription?login=thibaut&mdp=depommier&pseudo=enferer HTTP/1.1" 404 1043
0:0:0:0:0:0:0:1 - - [20/Dec/2017:14:56:17 +0100] "GET /revision/ HTTP/1.1" 200 1075
0:0:0:0:0:0:0:1 - - [20/Dec/2017:14:56:18 +0100] "GET /revision/ HTTP/1.1" 304 -
0:0:0:0:0:0:0:1 - - [20/Dec/2017:14:56:19 +0100] "GET /revision/revision/servlet/Inscription?login=thibaut&mdp=depommier&pseudo=enferer HTTP/1.1" 404 1079
0:0:0:0:0:0:0:1 - - [20/Dec/2017:14:56:35 +0100] "GET /revision/revision/servlet/Inscription?login=thibaut&mdp=depommier&pseudo=enferer HTTP/1.1" 404 1079
0:0:0:0:0:0:0:1 - - [20/Dec/2017:14:56:41 +0100] "GET /revision/revision/servlet/Inscription?login=thibaut&mdp=depommier&pseudo=enferer HTTP/1.1" 404 1079
0:0:0:0:0:0:0:1 - - [20/Dec/2017:14:56:54 +0100] "GET /revision/ HTTP/1.1" 200 1066
0:0:0:0:0:0:0:1 - - [20/Dec/2017:14:56:55 +0100] "GET /revision/servlet/Inscription?login=thibaut&mdp=depommier&pseudo=enferer HTTP/1.1" 302 -
0:0:0:0:0:0:0:1 - - [20/Dec/2017:14:56:55 +0100] "GET /revision/servlet/revision/Accueil.html HTTP/1.1" 404 1081
0:0:0:0:0:0:0:1 - - [20/Dec/2017:14:57:26 +0100] "GET /revision/servlet/Inscription?login=thibaut&mdp=depommier&pseudo=enferer HTTP/1.1" 302 -
0:0:0:0:0:0:0:1 - - [20/Dec/2017:14:57:26 +0100] "GET /revision/servlet/revision/Accueil.html HTTP/1.1" 404 1081
0:0:0:0:0:0:0:1 - - [20/Dec/2017:14:57:37 +0100] "GET /revision/ HTTP/1.1" 200 1067
0:0:0:0:0:0:0:1 - - [20/Dec/2017:14:57:38 +0100] "GET /revision/ HTTP/1.1" 304 -
0:0:0:0:0:0:0:1 - - [20/Dec/2017:14:57:39 +0100] "GET /servlet/Inscription?login=thibaut&mdp=depommier&pseudo=enferer HTTP/1.1" 404 1043
0:0:0:0:0:0:0:1 - - [20/Dec/2017:14:58:03 +0100] "GET /revision/ HTTP/1.1" 200 1066
0:0:0:0:0:0:0:1 - - [20/Dec/2017:14:58:04 +0100] "GET /revision/servlet/Inscription?login=thibaut&mdp=depommier&pseudo=enferer HTTP/1.1" 302 -
0:0:0:0:0:0:0:1 - - [20/Dec/2017:14:58:04 +0100] "GET /revision/Accueil.html HTTP/1.1" 200 1066
0:0:0:0:0:0:0:1 - - [20/Dec/2017:14:58:31 +0100] "GET /revision/Accueil.html HTTP/1.1" 200 1074
0:0:0:0:0:0:0:1 - - [20/Dec/2017:14:58:32 +0100] "GET /revision/Accueil.html HTTP/1.1" 304 -
0:0:0:0:0:0:0:1 - - [20/Dec/2017:14:58:33 +0100] "GET /revision/Accueil.html HTTP/1.1" 304 -
0:0:0:0:0:0:0:1 - - [20/Dec/2017:15:01:48 +0100] "GET /revision/Accueil.html HTTP/1.1" 304 -
0:0:0:0:0:0:0:1 - - [20/Dec/2017:15:01:49 +0100] "GET /revision/Accueil.html HTTP/1.1" 304 -
0:0:0:0:0:0:0:1 - - [20/Dec/2017:15:02:01 +0100] "GET /revision/servlet/Inscription?login=thibaut&mdp=depommier&pseudo=enferer HTTP/1.1" 302 -
0:0:0:0:0:0:0:1 - - [20/Dec/2017:15:04:07 +0100] "GET /revision/servlet/Inscription?login=admin&mdp=admin&pseudo=thibaut HTTP/1.1" 302 -
0:0:0:0:0:0:0:1 - - [20/Dec/2017:15:04:07 +0100] "GET /revision/Accueil.html HTTP/1.1" 304 -
0:0:0:0:0:0:0:1 - - [20/Dec/2017:15:05:55 +0100] "GET /revision/servlet/Inscription?login=admin&mdp=admin&pseudo=admin HTTP/1.1" 302 -
0:0:0:0:0:0:0:1 - - [20/Dec/2017:15:05:55 +0100] "GET /revision/Accueil.html HTTP/1.1" 304 -
0:0:0:0:0:0:0:1 - - [20/Dec/2017:15:06:00 +0100] "GET /revision/servlet/Inscription?login=admin&mdp=admin&pseudo=admin HTTP/1.1" 200 -
0:0:0:0:0:0:0:1 - - [20/Dec/2017:16:03:25 +0100] "GET /revision/ HTTP/1.1" 200 1074
0:0:0:0:0:0:0:1 - - [20/Dec/2017:16:03:26 +0100] "GET /favicon.ico HTTP/1.1" 200 21630
172.18.49.53 - - [20/Dec/2017:16:46:39 +0100] "GET /vide/servlet/Insert HTTP/1.1" 404 1043
172.18.49.53 - - [20/Dec/2017:16:46:39 +0100] "GET /favicon.ico HTTP/1.1" 200 21630
172.18.49.53 - - [20/Dec/2017:16:46:46 +0100] "GET /vide/servlet/Select HTTP/1.1" 404 1043
