0:0:0:0:0:0:0:1 - - [09/Nov/2017:10:38:46 +0100] "GET /ctp HTTP/1.1" 302 -
0:0:0:0:0:0:0:1 - - [09/Nov/2017:10:38:46 +0100] "GET /ctp/ HTTP/1.1" 200 84
0:0:0:0:0:0:0:1 - - [09/Nov/2017:10:38:47 +0100] "GET /favicon.ico HTTP/1.1" 200 21630
0:0:0:0:0:0:0:1 - - [09/Nov/2017:10:42:22 +0100] "GET /ctp/ HTTP/1.1" 200 123
0:0:0:0:0:0:0:1 - - [09/Nov/2017:10:42:25 +0100] "GET /ctp/ HTTP/1.1" 304 -
0:0:0:0:0:0:0:1 - - [09/Nov/2017:10:42:39 +0100] "GET /ctp/ HTTP/1.1" 304 -
0:0:0:0:0:0:0:1 - - [09/Nov/2017:10:44:34 +0100] "GET /ctp/ HTTP/1.1" 304 -
0:0:0:0:0:0:0:1 - - [09/Nov/2017:10:44:46 +0100] "GET /ctp/ HTTP/1.1" 304 -
0:0:0:0:0:0:0:1 - - [09/Nov/2017:10:44:47 +0100] "GET /ctp/ HTTP/1.1" 304 -
0:0:0:0:0:0:0:1 - - [09/Nov/2017:11:35:26 +0100] "GET /ctp HTTP/1.1" 302 -
0:0:0:0:0:0:0:1 - - [09/Nov/2017:11:35:26 +0100] "GET /ctp/ HTTP/1.1" 200 216
172.18.49.143 - - [09/Nov/2017:11:38:06 +0100] "GET /ctp HTTP/1.1" 302 -
172.18.49.143 - - [09/Nov/2017:11:38:06 +0100] "GET /ctp/ HTTP/1.1" 200 216
172.18.49.143 - - [09/Nov/2017:11:38:06 +0100] "GET /favicon.ico HTTP/1.1" 200 21630
