0:0:0:0:0:0:0:1 - - [16/Mar/2018:13:51:38 +0100] "GET /index.html HTTP/1.1" 404 1025
0:0:0:0:0:0:0:1 - - [16/Mar/2018:13:51:38 +0100] "GET /favicon.ico HTTP/1.1" 200 21630
0:0:0:0:0:0:0:1 - - [16/Mar/2018:13:51:46 +0100] "GET /vide/index.html HTTP/1.1" 200 6
0:0:0:0:0:0:0:1 - - [16/Mar/2018:14:29:36 +0100] "GET /vide HTTP/1.1" 302 -
0:0:0:0:0:0:0:1 - - [16/Mar/2018:14:29:36 +0100] "GET /vide/ HTTP/1.1" 404 1015
0:0:0:0:0:0:0:1 - - [16/Mar/2018:14:30:09 +0100] "GET /vide/tp4_web_s4/index.html HTTP/1.1" 200 2095
0:0:0:0:0:0:0:1 - - [16/Mar/2018:14:30:10 +0100] "GET /vide/tp4_web_s4/lib/main.js HTTP/1.1" 200 61
0:0:0:0:0:0:0:1 - - [16/Mar/2018:14:34:21 +0100] "GET /vide/tp4_web_s4/index.html HTTP/1.1" 200 2095
0:0:0:0:0:0:0:1 - - [16/Mar/2018:14:34:21 +0100] "GET /vide/tp4_web_s4/lib/main.js HTTP/1.1" 304 -
0:0:0:0:0:0:0:1 - - [16/Mar/2018:14:34:46 +0100] "GET /vide/tp4_web_s4/index.html HTTP/1.1" 304 -
0:0:0:0:0:0:0:1 - - [16/Mar/2018:14:34:46 +0100] "GET /vide/tp4_web_s4/lib/main.js HTTP/1.1" 200 81
0:0:0:0:0:0:0:1 - - [16/Mar/2018:14:40:03 +0100] "GET /vide/tp4_web_s4/index.html HTTP/1.1" 200 2134
0:0:0:0:0:0:0:1 - - [16/Mar/2018:14:40:03 +0100] "GET /vide/tp4_web_s4/jquery-3.3.1.js HTTP/1.1" 200 271751
0:0:0:0:0:0:0:1 - - [16/Mar/2018:14:40:03 +0100] "GET /vide/tp4_web_s4/lib/main.js HTTP/1.1" 200 13
0:0:0:0:0:0:0:1 - - [16/Mar/2018:14:42:47 +0100] "GET /vide/tp4_web_s4/index.html HTTP/1.1" 304 -
0:0:0:0:0:0:0:1 - - [16/Mar/2018:14:42:47 +0100] "GET /vide/tp4_web_s4/jquery-3.3.1.js HTTP/1.1" 304 -
0:0:0:0:0:0:0:1 - - [16/Mar/2018:14:42:47 +0100] "GET /vide/tp4_web_s4/lib/main.js HTTP/1.1" 200 357
0:0:0:0:0:0:0:1 - - [16/Mar/2018:14:47:24 +0100] "GET /vide/tp4_web_s4/index.html HTTP/1.1" 200 2227
0:0:0:0:0:0:0:1 - - [16/Mar/2018:14:47:24 +0100] "GET /vide/tp4_web_s4/jquery-3.3.1.js HTTP/1.1" 304 -
0:0:0:0:0:0:0:1 - - [16/Mar/2018:14:47:24 +0100] "GET /vide/tp4_web_s4/lib/main.js HTTP/1.1" 200 77
0:0:0:0:0:0:0:1 - - [16/Mar/2018:14:48:10 +0100] "GET /vide/tp4_web_s4/index.html HTTP/1.1" 304 -
0:0:0:0:0:0:0:1 - - [16/Mar/2018:14:48:10 +0100] "GET /vide/tp4_web_s4/jquery-3.3.1.js HTTP/1.1" 304 -
0:0:0:0:0:0:0:1 - - [16/Mar/2018:14:48:10 +0100] "GET /vide/tp4_web_s4/lib/main.js HTTP/1.1" 304 -
0:0:0:0:0:0:0:1 - - [16/Mar/2018:14:48:12 +0100] "GET /vide/tp4_web_s4/index.html HTTP/1.1" 304 -
0:0:0:0:0:0:0:1 - - [16/Mar/2018:14:48:12 +0100] "GET /vide/tp4_web_s4/lib/main.js HTTP/1.1" 304 -
0:0:0:0:0:0:0:1 - - [16/Mar/2018:14:48:12 +0100] "GET /vide/tp4_web_s4/jquery-3.3.1.js HTTP/1.1" 304 -
0:0:0:0:0:0:0:1 - - [16/Mar/2018:14:48:45 +0100] "GET /vide/tp4_web_s4/index.html HTTP/1.1" 304 -
0:0:0:0:0:0:0:1 - - [16/Mar/2018:14:48:45 +0100] "GET /vide/tp4_web_s4/jquery-3.3.1.js HTTP/1.1" 304 -
0:0:0:0:0:0:0:1 - - [16/Mar/2018:14:48:45 +0100] "GET /vide/tp4_web_s4/lib/main.js HTTP/1.1" 200 123
0:0:0:0:0:0:0:1 - - [16/Mar/2018:14:48:50 +0100] "GET /vide/tp4_web_s4/index.html HTTP/1.1" 304 -
0:0:0:0:0:0:0:1 - - [16/Mar/2018:14:48:50 +0100] "GET /vide/tp4_web_s4/jquery-3.3.1.js HTTP/1.1" 304 -
0:0:0:0:0:0:0:1 - - [16/Mar/2018:14:48:50 +0100] "GET /vide/tp4_web_s4/lib/main.js HTTP/1.1" 304 -
0:0:0:0:0:0:0:1 - - [16/Mar/2018:14:50:19 +0100] "GET /vide/tp4_web_s4/index.html HTTP/1.1" 200 2226
0:0:0:0:0:0:0:1 - - [16/Mar/2018:14:50:19 +0100] "GET /vide/tp4_web_s4/jquery-3.3.1.js HTTP/1.1" 304 -
0:0:0:0:0:0:0:1 - - [16/Mar/2018:14:50:19 +0100] "GET /vide/tp4_web_s4/lib/main.js HTTP/1.1" 200 123
0:0:0:0:0:0:0:1 - - [16/Mar/2018:14:50:30 +0100] "GET /vide/tp4_web_s4/index.html HTTP/1.1" 200 2225
0:0:0:0:0:0:0:1 - - [16/Mar/2018:14:50:30 +0100] "GET /vide/tp4_web_s4/jquery-3.3.1.js HTTP/1.1" 304 -
0:0:0:0:0:0:0:1 - - [16/Mar/2018:14:50:30 +0100] "GET /vide/tp4_web_s4/lib/main.js HTTP/1.1" 304 -
0:0:0:0:0:0:0:1 - - [16/Mar/2018:14:51:10 +0100] "GET /vide/tp4_web_s4/index.html HTTP/1.1" 304 -
0:0:0:0:0:0:0:1 - - [16/Mar/2018:14:51:10 +0100] "GET /vide/tp4_web_s4/jquery-3.3.1.js HTTP/1.1" 304 -
0:0:0:0:0:0:0:1 - - [16/Mar/2018:14:51:10 +0100] "GET /vide/tp4_web_s4/lib/main.js HTTP/1.1" 200 143
0:0:0:0:0:0:0:1 - - [16/Mar/2018:14:56:42 +0100] "GET /vide/tp4_web_s4/index.html HTTP/1.1" 304 -
0:0:0:0:0:0:0:1 - - [16/Mar/2018:14:56:42 +0100] "GET /vide/tp4_web_s4/jquery-3.3.1.js HTTP/1.1" 304 -
0:0:0:0:0:0:0:1 - - [16/Mar/2018:14:56:42 +0100] "GET /vide/tp4_web_s4/lib/main.js HTTP/1.1" 200 358
0:0:0:0:0:0:0:1 - - [16/Mar/2018:14:59:22 +0100] "GET /vide/tp4_web_s4/index.html HTTP/1.1" 304 -
0:0:0:0:0:0:0:1 - - [16/Mar/2018:14:59:22 +0100] "GET /vide/tp4_web_s4/jquery-3.3.1.js HTTP/1.1" 304 -
0:0:0:0:0:0:0:1 - - [16/Mar/2018:14:59:22 +0100] "GET /vide/tp4_web_s4/lib/main.js HTTP/1.1" 200 417
0:0:0:0:0:0:0:1 - - [16/Mar/2018:14:59:57 +0100] "GET /vide/tp4_web_s4/index.html HTTP/1.1" 304 -
0:0:0:0:0:0:0:1 - - [16/Mar/2018:14:59:57 +0100] "GET /vide/tp4_web_s4/jquery-3.3.1.js HTTP/1.1" 304 -
0:0:0:0:0:0:0:1 - - [16/Mar/2018:14:59:57 +0100] "GET /vide/tp4_web_s4/lib/main.js HTTP/1.1" 200 450
0:0:0:0:0:0:0:1 - - [16/Mar/2018:15:03:01 +0100] "GET /vide/tp4_web_s4/index.html HTTP/1.1" 304 -
0:0:0:0:0:0:0:1 - - [16/Mar/2018:15:03:01 +0100] "GET /vide/tp4_web_s4/jquery-3.3.1.js HTTP/1.1" 304 -
0:0:0:0:0:0:0:1 - - [16/Mar/2018:15:03:01 +0100] "GET /vide/tp4_web_s4/lib/main.js HTTP/1.1" 304 -
0:0:0:0:0:0:0:1 - - [16/Mar/2018:15:03:23 +0100] "GET /vide/tp4_web_s4/index.html HTTP/1.1" 304 -
0:0:0:0:0:0:0:1 - - [16/Mar/2018:15:03:23 +0100] "GET /vide/tp4_web_s4/jquery-3.3.1.js HTTP/1.1" 304 -
0:0:0:0:0:0:0:1 - - [16/Mar/2018:15:03:23 +0100] "GET /vide/tp4_web_s4/lib/main.js HTTP/1.1" 304 -
0:0:0:0:0:0:0:1 - - [16/Mar/2018:15:03:43 +0100] "GET /vide/tp4_web_s4/index.html HTTP/1.1" 304 -
0:0:0:0:0:0:0:1 - - [16/Mar/2018:15:03:43 +0100] "GET /vide/tp4_web_s4/jquery-3.3.1.js HTTP/1.1" 304 -
0:0:0:0:0:0:0:1 - - [16/Mar/2018:15:03:43 +0100] "GET /vide/tp4_web_s4/lib/main.js HTTP/1.1" 200 321
0:0:0:0:0:0:0:1 - - [16/Mar/2018:15:03:52 +0100] "GET /vide/tp4_web_s4/index.html HTTP/1.1" 304 -
0:0:0:0:0:0:0:1 - - [16/Mar/2018:15:03:52 +0100] "GET /vide/tp4_web_s4/jquery-3.3.1.js HTTP/1.1" 304 -
0:0:0:0:0:0:0:1 - - [16/Mar/2018:15:03:52 +0100] "GET /vide/tp4_web_s4/lib/main.js HTTP/1.1" 200 362
0:0:0:0:0:0:0:1 - - [16/Mar/2018:15:11:53 +0100] "GET /vide/tp4_web_s4/index.html HTTP/1.1" 304 -
0:0:0:0:0:0:0:1 - - [16/Mar/2018:15:11:53 +0100] "GET /vide/tp4_web_s4/jquery-3.3.1.js HTTP/1.1" 304 -
0:0:0:0:0:0:0:1 - - [16/Mar/2018:15:11:53 +0100] "GET /vide/tp4_web_s4/lib/main.js HTTP/1.1" 304 -
0:0:0:0:0:0:0:1 - - [16/Mar/2018:15:12:00 +0100] "GET /vide/tp4_web_s4/index.html HTTP/1.1" 304 -
0:0:0:0:0:0:0:1 - - [16/Mar/2018:15:12:00 +0100] "GET /vide/tp4_web_s4/jquery-3.3.1.js HTTP/1.1" 304 -
0:0:0:0:0:0:0:1 - - [16/Mar/2018:15:12:00 +0100] "GET /vide/tp4_web_s4/lib/main.js HTTP/1.1" 200 364
