0:0:0:0:0:0:0:1 - - [25/Oct/2017:13:34:52 +0200] "GET / HTTP/1.1" 200 11250
0:0:0:0:0:0:0:1 - - [25/Oct/2017:13:34:52 +0200] "GET /tomcat.css HTTP/1.1" 200 5576
0:0:0:0:0:0:0:1 - - [25/Oct/2017:13:34:52 +0200] "GET /tomcat.png HTTP/1.1" 200 5103
0:0:0:0:0:0:0:1 - - [25/Oct/2017:13:34:52 +0200] "GET /bg-nav.png HTTP/1.1" 200 1401
0:0:0:0:0:0:0:1 - - [25/Oct/2017:13:34:52 +0200] "GET /bg-upper.png HTTP/1.1" 200 3103
0:0:0:0:0:0:0:1 - - [25/Oct/2017:13:34:52 +0200] "GET /asf-logo.png HTTP/1.1" 200 17811
0:0:0:0:0:0:0:1 - - [25/Oct/2017:13:34:52 +0200] "GET /bg-button.png HTTP/1.1" 200 713
0:0:0:0:0:0:0:1 - - [25/Oct/2017:13:34:52 +0200] "GET /bg-middle.png HTTP/1.1" 200 1918
0:0:0:0:0:0:0:1 - - [25/Oct/2017:13:34:52 +0200] "GET /favicon.ico HTTP/1.1" 200 21630
0:0:0:0:0:0:0:1 - - [25/Oct/2017:13:34:54 +0200] "GET /examples/ HTTP/1.1" 404 1023
0:0:0:0:0:0:0:1 - - [25/Oct/2017:13:35:04 +0200] "GET /vide/servlet/Select?table=clients HTTP/1.1" 200 54888
0:0:0:0:0:0:0:1 - - [25/Oct/2017:13:40:16 +0200] "GET /vide/servlet/Select?table=terrain HTTP/1.1" 200 1365
0:0:0:0:0:0:0:1 - - [25/Oct/2017:13:48:09 +0200] "GET /vide/servlet/Delete HTTP/1.1" 200 82
0:0:0:0:0:0:0:1 - - [25/Oct/2017:13:48:56 +0200] "GET /vide/servlet/Delete HTTP/1.1" 200 82
0:0:0:0:0:0:0:1 - - [25/Oct/2017:13:48:58 +0200] "GET /vide/servlet/Delete HTTP/1.1" 200 82
0:0:0:0:0:0:0:1 - - [25/Oct/2017:13:49:03 +0200] "GET /vide/servlet/Delete HTTP/1.1" 200 107
0:0:0:0:0:0:0:1 - - [25/Oct/2017:13:49:35 +0200] "GET /vide/servlet/Delete HTTP/1.1" 200 106
0:0:0:0:0:0:0:1 - - [25/Oct/2017:13:49:37 +0200] "GET /vide/servlet/Delete HTTP/1.1" 200 106
0:0:0:0:0:0:0:1 - - [25/Oct/2017:13:49:37 +0200] "GET /vide/servlet/Delete HTTP/1.1" 200 106
0:0:0:0:0:0:0:1 - - [25/Oct/2017:13:49:37 +0200] "GET /vide/servlet/Delete HTTP/1.1" 200 106
0:0:0:0:0:0:0:1 - - [25/Oct/2017:13:49:38 +0200] "GET /vide/servlet/Delete HTTP/1.1" 200 106
0:0:0:0:0:0:0:1 - - [25/Oct/2017:13:53:37 +0200] "GET /vide/servlet/Delete HTTP/1.1" 200 106
0:0:0:0:0:0:0:1 - - [25/Oct/2017:13:59:07 +0200] "GET /vide/servlet/Delete HTTP/1.1" 200 276
0:0:0:0:0:0:0:1 - - [25/Oct/2017:13:59:24 +0200] "GET /vide/servlet/Delete HTTP/1.1" 200 277
0:0:0:0:0:0:0:1 - - [25/Oct/2017:13:59:25 +0200] "GET /vide/servlet/Delete HTTP/1.1" 200 277
0:0:0:0:0:0:0:1 - - [25/Oct/2017:13:59:25 +0200] "GET /vide/servlet/Delete HTTP/1.1" 200 277
0:0:0:0:0:0:0:1 - - [25/Oct/2017:13:59:25 +0200] "GET /vide/servlet/Delete HTTP/1.1" 200 277
0:0:0:0:0:0:0:1 - - [25/Oct/2017:13:59:26 +0200] "GET /vide/servlet/Delete HTTP/1.1" 200 277
0:0:0:0:0:0:0:1 - - [25/Oct/2017:13:59:26 +0200] "GET /vide/servlet/Delete HTTP/1.1" 200 277
0:0:0:0:0:0:0:1 - - [25/Oct/2017:13:59:26 +0200] "GET /vide/servlet/Delete HTTP/1.1" 200 277
0:0:0:0:0:0:0:1 - - [25/Oct/2017:13:59:26 +0200] "GET /vide/servlet/Delete HTTP/1.1" 200 277
0:0:0:0:0:0:0:1 - - [25/Oct/2017:13:59:26 +0200] "GET /vide/servlet/Delete HTTP/1.1" 200 277
0:0:0:0:0:0:0:1 - - [25/Oct/2017:13:59:26 +0200] "GET /vide/servlet/Delete HTTP/1.1" 200 277
0:0:0:0:0:0:0:1 - - [25/Oct/2017:13:59:27 +0200] "GET /vide/servlet/Delete HTTP/1.1" 200 277
0:0:0:0:0:0:0:1 - - [25/Oct/2017:13:59:29 +0200] "GET /vide/servlet/Delete HTTP/1.1" 200 277
0:0:0:0:0:0:0:1 - - [25/Oct/2017:13:59:47 +0200] "GET /vide/servlet/Delete HTTP/1.1" 200 282
0:0:0:0:0:0:0:1 - - [25/Oct/2017:13:59:47 +0200] "GET /vide/servlet/Delete HTTP/1.1" 200 282
0:0:0:0:0:0:0:1 - - [25/Oct/2017:13:59:47 +0200] "GET /vide/servlet/Delete HTTP/1.1" 200 282
0:0:0:0:0:0:0:1 - - [25/Oct/2017:14:00:02 +0200] "GET /vide/servlet/Delete HTTP/1.1" 200 290
0:0:0:0:0:0:0:1 - - [25/Oct/2017:14:00:02 +0200] "GET /vide/servlet/Delete HTTP/1.1" 200 290
0:0:0:0:0:0:0:1 - - [25/Oct/2017:14:00:02 +0200] "GET /vide/servlet/Delete HTTP/1.1" 200 290
0:0:0:0:0:0:0:1 - - [25/Oct/2017:14:00:03 +0200] "GET /vide/servlet/Delete HTTP/1.1" 200 290
0:0:0:0:0:0:0:1 - - [25/Oct/2017:14:00:03 +0200] "GET /vide/servlet/Delete HTTP/1.1" 200 290
0:0:0:0:0:0:0:1 - - [25/Oct/2017:14:00:03 +0200] "GET /vide/servlet/Delete HTTP/1.1" 200 290
0:0:0:0:0:0:0:1 - - [25/Oct/2017:14:00:03 +0200] "GET /vide/servlet/Delete HTTP/1.1" 200 290
0:0:0:0:0:0:0:1 - - [25/Oct/2017:14:00:03 +0200] "GET /vide/servlet/Delete HTTP/1.1" 200 290
0:0:0:0:0:0:0:1 - - [25/Oct/2017:14:00:04 +0200] "GET /vide/servlet/Delete HTTP/1.1" 200 290
0:0:0:0:0:0:0:1 - - [25/Oct/2017:14:00:04 +0200] "GET /vide/servlet/Delete HTTP/1.1" 200 290
0:0:0:0:0:0:0:1 - - [25/Oct/2017:14:00:04 +0200] "GET /vide/servlet/Delete HTTP/1.1" 200 290
0:0:0:0:0:0:0:1 - - [25/Oct/2017:14:00:04 +0200] "GET /vide/servlet/Delete HTTP/1.1" 200 290
0:0:0:0:0:0:0:1 - - [25/Oct/2017:14:00:04 +0200] "GET /vide/servlet/Delete HTTP/1.1" 200 290
0:0:0:0:0:0:0:1 - - [25/Oct/2017:14:00:04 +0200] "GET /vide/servlet/Delete HTTP/1.1" 200 290
0:0:0:0:0:0:0:1 - - [25/Oct/2017:14:00:05 +0200] "GET /vide/servlet/Delete HTTP/1.1" 200 290
0:0:0:0:0:0:0:1 - - [25/Oct/2017:14:00:05 +0200] "GET /vide/servlet/Delete HTTP/1.1" 200 290
0:0:0:0:0:0:0:1 - - [25/Oct/2017:14:00:05 +0200] "GET /vide/servlet/Delete HTTP/1.1" 200 290
0:0:0:0:0:0:0:1 - - [25/Oct/2017:14:00:05 +0200] "GET /vide/servlet/Delete HTTP/1.1" 200 290
0:0:0:0:0:0:0:1 - - [25/Oct/2017:14:00:05 +0200] "GET /vide/servlet/Delete HTTP/1.1" 200 290
0:0:0:0:0:0:0:1 - - [25/Oct/2017:14:00:06 +0200] "GET /vide/servlet/Delete HTTP/1.1" 200 290
0:0:0:0:0:0:0:1 - - [25/Oct/2017:14:00:18 +0200] "GET /vide/servlet/Delete HTTP/1.1" 200 290
0:0:0:0:0:0:0:1 - - [25/Oct/2017:14:00:18 +0200] "GET /vide/servlet/Delete HTTP/1.1" 200 290
0:0:0:0:0:0:0:1 - - [25/Oct/2017:14:00:19 +0200] "GET /vide/servlet/Delete HTTP/1.1" 200 290
0:0:0:0:0:0:0:1 - - [25/Oct/2017:14:00:19 +0200] "GET /vide/servlet/Delete HTTP/1.1" 200 290
0:0:0:0:0:0:0:1 - - [25/Oct/2017:14:01:01 +0200] "GET /vide/servlet/Delete HTTP/1.1" 200 291
0:0:0:0:0:0:0:1 - - [25/Oct/2017:14:01:11 +0200] "GET /vide/servlet/Delete HTTP/1.1" 200 283
0:0:0:0:0:0:0:1 - - [25/Oct/2017:14:01:12 +0200] "GET /vide/servlet/Delete HTTP/1.1" 200 283
0:0:0:0:0:0:0:1 - - [25/Oct/2017:14:01:13 +0200] "GET /vide/servlet/Delete HTTP/1.1" 200 283
0:0:0:0:0:0:0:1 - - [25/Oct/2017:14:01:13 +0200] "GET /vide/servlet/Delete HTTP/1.1" 200 283
0:0:0:0:0:0:0:1 - - [25/Oct/2017:14:01:14 +0200] "GET /vide/servlet/Delete HTTP/1.1" 200 283
0:0:0:0:0:0:0:1 - - [25/Oct/2017:14:01:14 +0200] "GET /vide/servlet/Delete HTTP/1.1" 200 283
0:0:0:0:0:0:0:1 - - [25/Oct/2017:14:01:14 +0200] "GET /vide/servlet/Delete HTTP/1.1" 200 283
0:0:0:0:0:0:0:1 - - [25/Oct/2017:14:01:14 +0200] "GET /vide/servlet/Delete HTTP/1.1" 200 283
0:0:0:0:0:0:0:1 - - [25/Oct/2017:14:01:15 +0200] "GET /vide/servlet/Delete HTTP/1.1" 200 283
0:0:0:0:0:0:0:1 - - [25/Oct/2017:14:01:15 +0200] "GET /vide/servlet/Delete HTTP/1.1" 200 283
0:0:0:0:0:0:0:1 - - [25/Oct/2017:14:01:19 +0200] "GET /vide/servlet/Delete HTTP/1.1" 200 283
0:0:0:0:0:0:0:1 - - [25/Oct/2017:14:01:20 +0200] "GET /vide/servlet/Delete HTTP/1.1" 200 283
0:0:0:0:0:0:0:1 - - [25/Oct/2017:14:01:20 +0200] "GET /vide/servlet/Delete HTTP/1.1" 200 283
0:0:0:0:0:0:0:1 - - [25/Oct/2017:14:01:21 +0200] "GET /vide/servlet/Delete HTTP/1.1" 200 283
0:0:0:0:0:0:0:1 - - [25/Oct/2017:14:01:21 +0200] "GET /vide/servlet/Delete HTTP/1.1" 200 283
0:0:0:0:0:0:0:1 - - [25/Oct/2017:14:01:21 +0200] "GET /vide/servlet/Delete HTTP/1.1" 200 283
0:0:0:0:0:0:0:1 - - [25/Oct/2017:14:01:22 +0200] "GET /vide/servlet/Delete HTTP/1.1" 200 283
0:0:0:0:0:0:0:1 - - [25/Oct/2017:14:01:22 +0200] "GET /vide/servlet/Delete HTTP/1.1" 200 283
0:0:0:0:0:0:0:1 - - [25/Oct/2017:14:01:22 +0200] "GET /vide/servlet/Delete HTTP/1.1" 200 283
0:0:0:0:0:0:0:1 - - [25/Oct/2017:14:01:22 +0200] "GET /vide/servlet/Delete HTTP/1.1" 200 283
0:0:0:0:0:0:0:1 - - [25/Oct/2017:14:01:22 +0200] "GET /vide/servlet/Delete HTTP/1.1" 200 283
0:0:0:0:0:0:0:1 - - [25/Oct/2017:14:01:22 +0200] "GET /vide/servlet/Delete HTTP/1.1" 200 283
0:0:0:0:0:0:0:1 - - [25/Oct/2017:14:01:22 +0200] "GET /vide/servlet/Delete HTTP/1.1" 200 283
0:0:0:0:0:0:0:1 - - [25/Oct/2017:14:01:23 +0200] "GET /vide/servlet/Delete HTTP/1.1" 200 283
0:0:0:0:0:0:0:1 - - [25/Oct/2017:14:01:23 +0200] "GET /vide/servlet/Delete HTTP/1.1" 200 283
0:0:0:0:0:0:0:1 - - [25/Oct/2017:14:01:23 +0200] "GET /vide/servlet/Delete HTTP/1.1" 200 283
0:0:0:0:0:0:0:1 - - [25/Oct/2017:14:01:23 +0200] "GET /vide/servlet/Delete HTTP/1.1" 200 283
0:0:0:0:0:0:0:1 - - [25/Oct/2017:14:01:23 +0200] "GET /vide/servlet/Delete HTTP/1.1" 200 283
0:0:0:0:0:0:0:1 - - [25/Oct/2017:14:01:23 +0200] "GET /vide/servlet/Delete HTTP/1.1" 200 283
0:0:0:0:0:0:0:1 - - [25/Oct/2017:14:01:23 +0200] "GET /vide/servlet/Delete HTTP/1.1" 200 283
0:0:0:0:0:0:0:1 - - [25/Oct/2017:14:01:23 +0200] "GET /vide/servlet/Delete HTTP/1.1" 200 283
0:0:0:0:0:0:0:1 - - [25/Oct/2017:14:01:23 +0200] "GET /vide/servlet/Delete HTTP/1.1" 200 283
0:0:0:0:0:0:0:1 - - [25/Oct/2017:14:01:23 +0200] "GET /vide/servlet/Delete HTTP/1.1" 200 283
0:0:0:0:0:0:0:1 - - [25/Oct/2017:14:01:23 +0200] "GET /vide/servlet/Delete HTTP/1.1" 200 283
0:0:0:0:0:0:0:1 - - [25/Oct/2017:14:01:23 +0200] "GET /vide/servlet/Delete HTTP/1.1" 200 283
0:0:0:0:0:0:0:1 - - [25/Oct/2017:14:01:23 +0200] "GET /vide/servlet/Delete HTTP/1.1" 200 283
0:0:0:0:0:0:0:1 - - [25/Oct/2017:14:01:23 +0200] "GET /vide/servlet/Delete HTTP/1.1" 200 283
0:0:0:0:0:0:0:1 - - [25/Oct/2017:14:01:23 +0200] "GET /vide/servlet/Delete HTTP/1.1" 200 283
0:0:0:0:0:0:0:1 - - [25/Oct/2017:14:01:23 +0200] "GET /vide/servlet/Delete HTTP/1.1" 200 283
0:0:0:0:0:0:0:1 - - [25/Oct/2017:14:01:23 +0200] "GET /vide/servlet/Delete HTTP/1.1" 200 283
0:0:0:0:0:0:0:1 - - [25/Oct/2017:14:01:23 +0200] "GET /vide/servlet/Delete HTTP/1.1" 200 283
0:0:0:0:0:0:0:1 - - [25/Oct/2017:14:01:23 +0200] "GET /vide/servlet/Delete HTTP/1.1" 200 283
0:0:0:0:0:0:0:1 - - [25/Oct/2017:14:01:23 +0200] "GET /vide/servlet/Delete HTTP/1.1" 200 283
0:0:0:0:0:0:0:1 - - [25/Oct/2017:14:01:23 +0200] "GET /vide/servlet/Delete HTTP/1.1" 200 283
0:0:0:0:0:0:0:1 - - [25/Oct/2017:14:01:23 +0200] "GET /vide/servlet/Delete HTTP/1.1" 200 283
0:0:0:0:0:0:0:1 - - [25/Oct/2017:14:01:23 +0200] "GET /vide/servlet/Delete HTTP/1.1" 200 283
0:0:0:0:0:0:0:1 - - [25/Oct/2017:14:01:23 +0200] "GET /vide/servlet/Delete HTTP/1.1" 200 283
0:0:0:0:0:0:0:1 - - [25/Oct/2017:14:01:23 +0200] "GET /vide/servlet/Delete HTTP/1.1" 200 283
0:0:0:0:0:0:0:1 - - [25/Oct/2017:14:01:23 +0200] "GET /vide/servlet/Delete HTTP/1.1" 200 283
0:0:0:0:0:0:0:1 - - [25/Oct/2017:14:01:23 +0200] "GET /vide/servlet/Delete HTTP/1.1" 200 283
0:0:0:0:0:0:0:1 - - [25/Oct/2017:14:01:23 +0200] "GET /vide/servlet/Delete HTTP/1.1" 200 283
0:0:0:0:0:0:0:1 - - [25/Oct/2017:14:01:23 +0200] "GET /vide/servlet/Delete HTTP/1.1" 200 283
0:0:0:0:0:0:0:1 - - [25/Oct/2017:14:01:24 +0200] "GET /vide/servlet/Delete HTTP/1.1" 200 283
0:0:0:0:0:0:0:1 - - [25/Oct/2017:14:01:24 +0200] "GET /vide/servlet/Delete HTTP/1.1" 200 283
0:0:0:0:0:0:0:1 - - [25/Oct/2017:14:01:24 +0200] "GET /vide/servlet/Delete HTTP/1.1" 200 283
0:0:0:0:0:0:0:1 - - [25/Oct/2017:14:01:24 +0200] "GET /vide/servlet/Delete HTTP/1.1" 200 283
0:0:0:0:0:0:0:1 - - [25/Oct/2017:14:01:24 +0200] "GET /vide/servlet/Delete HTTP/1.1" 200 283
0:0:0:0:0:0:0:1 - - [25/Oct/2017:14:01:24 +0200] "GET /vide/servlet/Delete HTTP/1.1" 200 283
0:0:0:0:0:0:0:1 - - [25/Oct/2017:14:01:24 +0200] "GET /vide/servlet/Delete HTTP/1.1" 200 283
0:0:0:0:0:0:0:1 - - [25/Oct/2017:14:01:24 +0200] "GET /vide/servlet/Delete HTTP/1.1" 200 283
0:0:0:0:0:0:0:1 - - [25/Oct/2017:14:01:25 +0200] "GET /vide/servlet/Delete HTTP/1.1" 200 283
0:0:0:0:0:0:0:1 - - [25/Oct/2017:14:01:25 +0200] "GET /vide/servlet/Delete HTTP/1.1" 200 283
0:0:0:0:0:0:0:1 - - [25/Oct/2017:14:01:25 +0200] "GET /vide/servlet/Delete HTTP/1.1" 200 283
0:0:0:0:0:0:0:1 - - [25/Oct/2017:14:01:25 +0200] "GET /vide/servlet/Delete HTTP/1.1" 200 283
0:0:0:0:0:0:0:1 - - [25/Oct/2017:14:01:25 +0200] "GET /vide/servlet/Delete HTTP/1.1" 200 283
0:0:0:0:0:0:0:1 - - [25/Oct/2017:14:01:25 +0200] "GET /vide/servlet/Delete HTTP/1.1" 200 283
0:0:0:0:0:0:0:1 - - [25/Oct/2017:14:01:25 +0200] "GET /vide/servlet/Delete HTTP/1.1" 200 283
0:0:0:0:0:0:0:1 - - [25/Oct/2017:14:01:25 +0200] "GET /vide/servlet/Delete HTTP/1.1" 200 283
0:0:0:0:0:0:0:1 - - [25/Oct/2017:14:01:25 +0200] "GET /vide/servlet/Delete HTTP/1.1" 200 283
0:0:0:0:0:0:0:1 - - [25/Oct/2017:14:01:25 +0200] "GET /vide/servlet/Delete HTTP/1.1" 200 283
0:0:0:0:0:0:0:1 - - [25/Oct/2017:14:01:25 +0200] "GET /vide/servlet/Delete HTTP/1.1" 200 283
0:0:0:0:0:0:0:1 - - [25/Oct/2017:14:01:25 +0200] "GET /vide/servlet/Delete HTTP/1.1" 200 283
0:0:0:0:0:0:0:1 - - [25/Oct/2017:14:01:25 +0200] "GET /vide/servlet/Delete HTTP/1.1" 200 283
0:0:0:0:0:0:0:1 - - [25/Oct/2017:14:01:25 +0200] "GET /vide/servlet/Delete HTTP/1.1" 200 283
0:0:0:0:0:0:0:1 - - [25/Oct/2017:14:01:25 +0200] "GET /vide/servlet/Delete HTTP/1.1" 200 283
0:0:0:0:0:0:0:1 - - [25/Oct/2017:14:01:26 +0200] "GET /vide/servlet/Delete HTTP/1.1" 200 283
0:0:0:0:0:0:0:1 - - [25/Oct/2017:14:01:26 +0200] "GET /vide/servlet/Delete HTTP/1.1" 200 283
0:0:0:0:0:0:0:1 - - [25/Oct/2017:14:01:26 +0200] "GET /vide/servlet/Delete HTTP/1.1" 200 283
0:0:0:0:0:0:0:1 - - [25/Oct/2017:14:01:26 +0200] "GET /vide/servlet/Delete HTTP/1.1" 200 283
0:0:0:0:0:0:0:1 - - [25/Oct/2017:14:01:26 +0200] "GET /vide/servlet/Delete HTTP/1.1" 200 283
0:0:0:0:0:0:0:1 - - [25/Oct/2017:14:01:26 +0200] "GET /vide/servlet/Delete HTTP/1.1" 200 283
0:0:0:0:0:0:0:1 - - [25/Oct/2017:14:01:26 +0200] "GET /vide/servlet/Delete HTTP/1.1" 200 283
0:0:0:0:0:0:0:1 - - [25/Oct/2017:14:01:26 +0200] "GET /vide/servlet/Delete HTTP/1.1" 200 283
0:0:0:0:0:0:0:1 - - [25/Oct/2017:14:01:26 +0200] "GET /vide/servlet/Delete HTTP/1.1" 200 283
0:0:0:0:0:0:0:1 - - [25/Oct/2017:14:01:26 +0200] "GET /vide/servlet/Delete HTTP/1.1" 200 283
0:0:0:0:0:0:0:1 - - [25/Oct/2017:14:01:26 +0200] "GET /vide/servlet/Delete HTTP/1.1" 200 283
0:0:0:0:0:0:0:1 - - [25/Oct/2017:14:01:26 +0200] "GET /vide/servlet/Delete HTTP/1.1" 200 283
0:0:0:0:0:0:0:1 - - [25/Oct/2017:14:01:26 +0200] "GET /vide/servlet/Delete HTTP/1.1" 200 283
0:0:0:0:0:0:0:1 - - [25/Oct/2017:14:01:26 +0200] "GET /vide/servlet/Delete HTTP/1.1" 200 283
0:0:0:0:0:0:0:1 - - [25/Oct/2017:14:01:26 +0200] "GET /vide/servlet/Delete HTTP/1.1" 200 283
0:0:0:0:0:0:0:1 - - [25/Oct/2017:14:01:26 +0200] "GET /vide/servlet/Delete HTTP/1.1" 200 283
0:0:0:0:0:0:0:1 - - [25/Oct/2017:14:01:26 +0200] "GET /vide/servlet/Delete HTTP/1.1" 200 283
0:0:0:0:0:0:0:1 - - [25/Oct/2017:14:01:26 +0200] "GET /vide/servlet/Delete HTTP/1.1" 200 283
0:0:0:0:0:0:0:1 - - [25/Oct/2017:14:01:26 +0200] "GET /vide/servlet/Delete HTTP/1.1" 200 283
0:0:0:0:0:0:0:1 - - [25/Oct/2017:14:01:26 +0200] "GET /vide/servlet/Delete HTTP/1.1" 200 283
0:0:0:0:0:0:0:1 - - [25/Oct/2017:14:01:26 +0200] "GET /vide/servlet/Delete HTTP/1.1" 200 283
0:0:0:0:0:0:0:1 - - [25/Oct/2017:14:01:26 +0200] "GET /vide/servlet/Delete HTTP/1.1" 200 283
0:0:0:0:0:0:0:1 - - [25/Oct/2017:14:01:26 +0200] "GET /vide/servlet/Delete HTTP/1.1" 200 283
0:0:0:0:0:0:0:1 - - [25/Oct/2017:14:01:26 +0200] "GET /vide/servlet/Delete HTTP/1.1" 200 283
0:0:0:0:0:0:0:1 - - [25/Oct/2017:14:01:26 +0200] "GET /vide/servlet/Delete HTTP/1.1" 200 283
0:0:0:0:0:0:0:1 - - [25/Oct/2017:14:01:26 +0200] "GET /vide/servlet/Delete HTTP/1.1" 200 283
0:0:0:0:0:0:0:1 - - [25/Oct/2017:14:01:26 +0200] "GET /vide/servlet/Delete HTTP/1.1" 200 283
0:0:0:0:0:0:0:1 - - [25/Oct/2017:14:01:26 +0200] "GET /vide/servlet/Delete HTTP/1.1" 200 283
0:0:0:0:0:0:0:1 - - [25/Oct/2017:14:01:26 +0200] "GET /vide/servlet/Delete HTTP/1.1" 200 283
0:0:0:0:0:0:0:1 - - [25/Oct/2017:14:01:26 +0200] "GET /vide/servlet/Delete HTTP/1.1" 200 283
0:0:0:0:0:0:0:1 - - [25/Oct/2017:14:01:26 +0200] "GET /vide/servlet/Delete HTTP/1.1" 200 283
0:0:0:0:0:0:0:1 - - [25/Oct/2017:14:01:27 +0200] "GET /vide/servlet/Delete HTTP/1.1" 200 283
0:0:0:0:0:0:0:1 - - [25/Oct/2017:14:01:27 +0200] "GET /vide/servlet/Delete HTTP/1.1" 200 283
0:0:0:0:0:0:0:1 - - [25/Oct/2017:14:01:27 +0200] "GET /vide/servlet/Delete HTTP/1.1" 200 283
0:0:0:0:0:0:0:1 - - [25/Oct/2017:14:01:27 +0200] "GET /vide/servlet/Delete HTTP/1.1" 200 283
0:0:0:0:0:0:0:1 - - [25/Oct/2017:14:01:27 +0200] "GET /vide/servlet/Delete HTTP/1.1" 200 283
0:0:0:0:0:0:0:1 - - [25/Oct/2017:14:02:23 +0200] "GET /vide/servlet/Delete HTTP/1.1" 200 319
0:0:0:0:0:0:0:1 - - [25/Oct/2017:14:02:35 +0200] "GET /vide/servlet/Delete HTTP/1.1" 200 320
0:0:0:0:0:0:0:1 - - [25/Oct/2017:14:02:43 +0200] "GET /vide/servlet/Delete HTTP/1.1" 200 324
0:0:0:0:0:0:0:1 - - [25/Oct/2017:14:02:51 +0200] "GET /vide/servlet/Delete HTTP/1.1" 200 328
0:0:0:0:0:0:0:1 - - [25/Oct/2017:14:03:13 +0200] "GET /vide/servlet/DeleteExecute?table=&ligne= HTTP/1.1" 404 1057
0:0:0:0:0:0:0:1 - - [25/Oct/2017:14:25:18 +0200] "GET /vide/servlet/Delete HTTP/1.1" 200 326
0:0:0:0:0:0:0:1 - - [25/Oct/2017:14:25:19 +0200] "GET /vide/servlet/DeleteExecute?table=&cle= HTTP/1.1" 404 1057
0:0:0:0:0:0:0:1 - - [25/Oct/2017:14:25:32 +0200] "GET /vide/servlet/DeleteExecute?table=Clients&cle=f HTTP/1.1" 404 1057
0:0:0:0:0:0:0:1 - - [25/Oct/2017:14:26:17 +0200] "GET /vide/servlet/DeleteExecute?table=Clients&cle=f HTTP/1.1" 404 1057
0:0:0:0:0:0:0:1 - - [25/Oct/2017:14:26:19 +0200] "GET /vide/servlet/DeleteExecute?table=Clients&cle=f HTTP/1.1" 404 1057
0:0:0:0:0:0:0:1 - - [25/Oct/2017:14:27:01 +0200] "GET /vide/servlet/DeleteExecute?table=Clients&cle=f HTTP/1.1" 404 1057
0:0:0:0:0:0:0:1 - - [25/Oct/2017:14:27:13 +0200] "GET /vide/servlet/DeleteExecute?table=Clients&cle=f HTTP/1.1" 404 1057
0:0:0:0:0:0:0:1 - - [25/Oct/2017:14:27:15 +0200] "GET /vide/servlet/DeleteExecute?table=Clients&cle=f HTTP/1.1" 404 1057
0:0:0:0:0:0:0:1 - - [25/Oct/2017:14:28:35 +0200] "GET /vide/servlet/DeleteExecute?table=Clients&cle=f HTTP/1.1" 302 -
0:0:0:0:0:0:0:1 - - [25/Oct/2017:14:28:35 +0200] "GET /vide/servlet/Delete HTTP/1.1" 200 326
0:0:0:0:0:0:0:1 - - [25/Oct/2017:14:30:05 +0200] "GET /vide/servlet/DeleteExecute?table=Clients&cle=Durand_0 HTTP/1.1" 302 -
0:0:0:0:0:0:0:1 - - [25/Oct/2017:14:30:05 +0200] "GET /vide/servlet/Delete HTTP/1.1" 200 326
0:0:0:0:0:0:0:1 - - [25/Oct/2017:14:30:43 +0200] "GET /vide/servlet/DeleteExecute?table=Clients&cle=Durand_0 HTTP/1.1" 302 -
0:0:0:0:0:0:0:1 - - [25/Oct/2017:14:30:43 +0200] "GET /vide/servlet/Delete HTTP/1.1" 200 326
0:0:0:0:0:0:0:1 - - [25/Oct/2017:14:31:07 +0200] "GET /vide/servlet/DeleteExecute?table=Clients&cle=Durand_0 HTTP/1.1" 302 -
0:0:0:0:0:0:0:1 - - [25/Oct/2017:14:31:07 +0200] "GET /vide/servlet/Delete HTTP/1.1" 200 326
0:0:0:0:0:0:0:1 - - [25/Oct/2017:14:33:38 +0200] "GET /vide/servlet/DeleteExecute?table=Clients&cle=Durand_0 HTTP/1.1" 302 -
0:0:0:0:0:0:0:1 - - [25/Oct/2017:14:33:38 +0200] "GET /vide/servlet/Delete HTTP/1.1" 200 326
0:0:0:0:0:0:0:1 - - [25/Oct/2017:14:34:08 +0200] "GET /vide/servlet/DeleteExecute?table=Clients&cle=%27Durand_0%27 HTTP/1.1" 302 -
0:0:0:0:0:0:0:1 - - [25/Oct/2017:14:34:08 +0200] "GET /vide/servlet/Delete HTTP/1.1" 200 326
0:0:0:0:0:0:0:1 - - [25/Oct/2017:14:35:26 +0200] "GET /vide/servlet/DeleteExecute?table=Clients&cle=%27Durand_1%27 HTTP/1.1" 302 -
0:0:0:0:0:0:0:1 - - [25/Oct/2017:14:35:26 +0200] "GET /vide/servlet/Delete HTTP/1.1" 200 326
0:0:0:0:0:0:0:1 - - [25/Oct/2017:14:47:05 +0200] "GET /vide/servlet/Select HTTP/1.1" 200 276
0:0:0:0:0:0:0:1 - - [25/Oct/2017:14:47:08 +0200] "GET /vide/servlet/Select?table=Clients HTTP/1.1" 200 178457
0:0:0:0:0:0:0:1 - - [25/Oct/2017:14:47:30 +0200] "GET /vide/servlet/Select?table=Clients HTTP/1.1" 200 178457
0:0:0:0:0:0:0:1 - - [25/Oct/2017:14:52:34 +0200] "GET /vide/servlet/Select?table=Clients HTTP/1.1" 200 189450
0:0:0:0:0:0:0:1 - - [25/Oct/2017:14:52:35 +0200] "GET /vide/servlet/Select?table=Clients HTTP/1.1" 200 189450
0:0:0:0:0:0:0:1 - - [25/Oct/2017:14:52:52 +0200] "GET /vide/servlet/Select?table=Clients HTTP/1.1" 200 190448
0:0:0:0:0:0:0:1 - - [25/Oct/2017:14:52:53 +0200] "GET /vide/servlet/Select?table=Clients HTTP/1.1" 200 190448
0:0:0:0:0:0:0:1 - - [25/Oct/2017:14:52:56 +0200] "GET /vide/servlet/DeleteExecute HTTP/1.1" 302 -
0:0:0:0:0:0:0:1 - - [25/Oct/2017:14:52:56 +0200] "GET /vide/servlet/Delete HTTP/1.1" 200 326
0:0:0:0:0:0:0:1 - - [25/Oct/2017:14:53:07 +0200] "GET /vide/servlet/DeleteExecute HTTP/1.1" 302 -
0:0:0:0:0:0:0:1 - - [25/Oct/2017:14:53:07 +0200] "GET /vide/servlet/Delete HTTP/1.1" 200 326
0:0:0:0:0:0:0:1 - - [25/Oct/2017:14:53:39 +0200] "GET /vide/servlet/DeleteExecute HTTP/1.1" 302 -
0:0:0:0:0:0:0:1 - - [25/Oct/2017:14:53:39 +0200] "GET /vide/servlet/Delete HTTP/1.1" 200 326
0:0:0:0:0:0:0:1 - - [25/Oct/2017:14:57:39 +0200] "GET /vide/servlet/DeleteExecute HTTP/1.1" 302 -
0:0:0:0:0:0:0:1 - - [25/Oct/2017:14:57:39 +0200] "GET /vide/servlet/Delete HTTP/1.1" 200 326
0:0:0:0:0:0:0:1 - - [25/Oct/2017:14:57:42 +0200] "GET /vide/servlet/DeleteExecute HTTP/1.1" 302 -
0:0:0:0:0:0:0:1 - - [25/Oct/2017:14:57:42 +0200] "GET /vide/servlet/Delete HTTP/1.1" 200 326
0:0:0:0:0:0:0:1 - - [25/Oct/2017:14:57:45 +0200] "GET /vide/servlet/Select?table=Clients HTTP/1.1" 200 190448
0:0:0:0:0:0:0:1 - - [25/Oct/2017:14:58:40 +0200] "GET /vide/servlet/DeleteExecute HTTP/1.1" 302 -
0:0:0:0:0:0:0:1 - - [25/Oct/2017:14:58:40 +0200] "GET /vide/servlet/Delete HTTP/1.1" 200 326
0:0:0:0:0:0:0:1 - - [25/Oct/2017:14:59:55 +0200] "GET /vide/servlet/DeleteExecute HTTP/1.1" 302 -
0:0:0:0:0:0:0:1 - - [25/Oct/2017:14:59:55 +0200] "GET /vide/servlet/Delete HTTP/1.1" 200 326
0:0:0:0:0:0:0:1 - - [25/Oct/2017:14:59:59 +0200] "GET /vide/servlet/DeleteExecute HTTP/1.1" 302 -
0:0:0:0:0:0:0:1 - - [25/Oct/2017:14:59:59 +0200] "GET /vide/servlet/Delete HTTP/1.1" 200 326
0:0:0:0:0:0:0:1 - - [25/Oct/2017:15:00:11 +0200] "GET /vide/servlet/DeleteExecute HTTP/1.1" 302 -
0:0:0:0:0:0:0:1 - - [25/Oct/2017:15:00:11 +0200] "GET /vide/servlet/Delete HTTP/1.1" 200 326
0:0:0:0:0:0:0:1 - - [25/Oct/2017:15:02:11 +0200] "GET /vide/servlet/Insert?champ1=nom&champ2=prenom&champ3=age&table=Clients HTTP/1.1" 302 -
0:0:0:0:0:0:0:1 - - [25/Oct/2017:15:02:11 +0200] "GET /vide/servlet/Select?table=Clients HTTP/1.1" 200 190448
0:0:0:0:0:0:0:1 - - [25/Oct/2017:15:02:12 +0200] "GET /vide/servlet/Insert?champ1=nom&champ2=prenom&champ3=age&table=Clients HTTP/1.1" 302 -
0:0:0:0:0:0:0:1 - - [25/Oct/2017:15:02:12 +0200] "GET /vide/servlet/Select?table=Clients HTTP/1.1" 200 190448
0:0:0:0:0:0:0:1 - - [25/Oct/2017:15:02:13 +0200] "GET /vide/servlet/Insert?champ1=nom&champ2=prenom&champ3=age&table=Clients HTTP/1.1" 302 -
0:0:0:0:0:0:0:1 - - [25/Oct/2017:15:02:13 +0200] "GET /vide/servlet/Select?table=Clients HTTP/1.1" 200 190448
0:0:0:0:0:0:0:1 - - [25/Oct/2017:15:03:08 +0200] "GET /vide/servlet/Select?table=Clients HTTP/1.1" 200 190448
0:0:0:0:0:0:0:1 - - [25/Oct/2017:15:03:09 +0200] "GET /vide/servlet/Select?table=Clients HTTP/1.1" 200 190448
0:0:0:0:0:0:0:1 - - [25/Oct/2017:15:03:09 +0200] "GET /vide/servlet/Select?table=Clients HTTP/1.1" 200 190448
0:0:0:0:0:0:0:1 - - [25/Oct/2017:15:03:10 +0200] "GET /vide/servlet/Select?table=Clients HTTP/1.1" 200 190448
0:0:0:0:0:0:0:1 - - [25/Oct/2017:15:03:11 +0200] "GET /vide/servlet/DeleteExecute HTTP/1.1" 302 -
0:0:0:0:0:0:0:1 - - [25/Oct/2017:15:03:11 +0200] "GET /vide/servlet/Delete HTTP/1.1" 200 326
0:0:0:0:0:0:0:1 - - [25/Oct/2017:15:03:24 +0200] "GET /vide/servlet/Select?table=Clients HTTP/1.1" 200 190448
0:0:0:0:0:0:0:1 - - [25/Oct/2017:15:05:03 +0200] "GET /vide/servlet/DeleteExecute HTTP/1.1" 302 -
0:0:0:0:0:0:0:1 - - [25/Oct/2017:15:05:03 +0200] "GET /vide/servlet/Delete HTTP/1.1" 200 326
0:0:0:0:0:0:0:1 - - [25/Oct/2017:15:05:59 +0200] "GET /vide/servlet/Select?table=Clients HTTP/1.1" 200 190448
0:0:0:0:0:0:0:1 - - [25/Oct/2017:15:08:40 +0200] "GET /vide/servlet/Select?table=Clients HTTP/1.1" 200 190448
0:0:0:0:0:0:0:1 - - [25/Oct/2017:15:08:45 +0200] "GET /vide/servlet/Select?table=Clients HTTP/1.1" 200 190448
0:0:0:0:0:0:0:1 - - [25/Oct/2017:15:09:55 +0200] "GET /vide/servlet/DeleteExecute?table=Clients&cle=Durand_999&select=vrai HTTP/1.1" 500 1797
0:0:0:0:0:0:0:1 - - [25/Oct/2017:15:11:05 +0200] "GET /vide/servlet/DeleteExecute?table=Clients&cle=Durand_999&select=vrai HTTP/1.1" 302 -
0:0:0:0:0:0:0:1 - - [25/Oct/2017:15:11:05 +0200] "GET /vide/servlet/Select?table=Clients HTTP/1.1" 200 190448
0:0:0:0:0:0:0:1 - - [25/Oct/2017:15:11:08 +0200] "GET /vide/servlet/DeleteExecute HTTP/1.1" 302 -
0:0:0:0:0:0:0:1 - - [25/Oct/2017:15:11:08 +0200] "GET /vide/servlet/Delete HTTP/1.1" 200 326
0:0:0:0:0:0:0:1 - - [25/Oct/2017:15:13:38 +0200] "GET /vide/servlet/DeleteExecute?table=Clients&cle=Durand_3&select=vrai HTTP/1.1" 302 -
0:0:0:0:0:0:0:1 - - [25/Oct/2017:15:13:38 +0200] "GET /vide/servlet/Select?table=Clients HTTP/1.1" 200 190448
0:0:0:0:0:0:0:1 - - [25/Oct/2017:15:13:57 +0200] "GET /vide/servlet/DeleteExecute?table=Clients&cle=Durand_3&select=vrai HTTP/1.1" 302 -
0:0:0:0:0:0:0:1 - - [25/Oct/2017:15:13:57 +0200] "GET /vide/servlet/Select?table=Clients HTTP/1.1" 200 190448
0:0:0:0:0:0:0:1 - - [25/Oct/2017:15:14:29 +0200] "GET /vide/servlet/DeleteExecute?table=Clients&cle=Durand_3&select=vrai HTTP/1.1" 302 -
0:0:0:0:0:0:0:1 - - [25/Oct/2017:15:14:29 +0200] "GET /vide/servlet/Select?table=Clients HTTP/1.1" 200 190448
0:0:0:0:0:0:0:1 - - [25/Oct/2017:15:15:11 +0200] "GET /vide/servlet/DeleteExecute HTTP/1.1" 302 -
0:0:0:0:0:0:0:1 - - [25/Oct/2017:15:15:11 +0200] "GET /vide/servlet/Delete HTTP/1.1" 200 326
0:0:0:0:0:0:0:1 - - [25/Oct/2017:15:15:13 +0200] "GET /vide/servlet/DeleteExecute HTTP/1.1" 302 -
0:0:0:0:0:0:0:1 - - [25/Oct/2017:15:15:13 +0200] "GET /vide/servlet/Delete HTTP/1.1" 200 326
0:0:0:0:0:0:0:1 - - [25/Oct/2017:15:15:34 +0200] "GET /vide/servlet/DeleteExecute?table=Clients&cle=Durand_3&select=vrai HTTP/1.1" 302 -
0:0:0:0:0:0:0:1 - - [25/Oct/2017:15:15:34 +0200] "GET /vide/servlet/Select?table=Clients HTTP/1.1" 200 192444
0:0:0:0:0:0:0:1 - - [25/Oct/2017:15:16:04 +0200] "GET /vide/servlet/DeleteExecute?table=Clients&cle=%27Durand_3%27&select=vrai HTTP/1.1" 302 -
0:0:0:0:0:0:0:1 - - [25/Oct/2017:15:16:04 +0200] "GET /vide/servlet/Select?table=Clients HTTP/1.1" 200 192256
0:0:0:0:0:0:0:1 - - [25/Oct/2017:15:16:21 +0200] "GET /vide/servlet/DeleteExecute HTTP/1.1" 302 -
0:0:0:0:0:0:0:1 - - [25/Oct/2017:15:16:21 +0200] "GET /vide/servlet/Delete HTTP/1.1" 200 326
0:0:0:0:0:0:0:1 - - [25/Oct/2017:15:17:06 +0200] "GET /vide/servlet/Select?table=Clients HTTP/1.1" 200 192256
0:0:0:0:0:0:0:1 - - [25/Oct/2017:15:17:55 +0200] "GET /vide/servlet/DeleteExecute HTTP/1.1" 302 -
0:0:0:0:0:0:0:1 - - [25/Oct/2017:15:17:55 +0200] "GET /vide/servlet/Delete HTTP/1.1" 200 326
0:0:0:0:0:0:0:1 - - [25/Oct/2017:15:18:13 +0200] "GET /vide/servlet/DeleteExecute?table=Clients&cle=Durand_999&select=vrai HTTP/1.1" 302 -
0:0:0:0:0:0:0:1 - - [25/Oct/2017:15:18:13 +0200] "GET /vide/servlet/Select?table=Clients HTTP/1.1" 200 192256
0:0:0:0:0:0:0:1 - - [25/Oct/2017:15:19:01 +0200] "GET /vide/servlet/DeleteExecute?table=Clients&cle=Durand_2&select=vrai HTTP/1.1" 302 -
0:0:0:0:0:0:0:1 - - [25/Oct/2017:15:19:01 +0200] "GET /vide/servlet/Select?table=Clients HTTP/1.1" 200 192256
0:0:0:0:0:0:0:1 - - [25/Oct/2017:15:19:09 +0200] "GET /vide/servlet/DeleteExecute?table=Clients&cle=Durand_2&select=vrai HTTP/1.1" 302 -
0:0:0:0:0:0:0:1 - - [25/Oct/2017:15:19:09 +0200] "GET /vide/servlet/Select?table=Clients HTTP/1.1" 200 192256
0:0:0:0:0:0:0:1 - - [25/Oct/2017:15:19:13 +0200] "GET /vide/servlet/Select?table=Clients HTTP/1.1" 200 192256
0:0:0:0:0:0:0:1 - - [25/Oct/2017:15:19:24 +0200] "GET /vide/servlet/DeleteExecute?table=Clients&cle=Durand_2&select=vrai HTTP/1.1" 302 -
0:0:0:0:0:0:0:1 - - [25/Oct/2017:15:19:24 +0200] "GET /vide/servlet/Select?table=Clients HTTP/1.1" 200 192256
0:0:0:0:0:0:0:1 - - [25/Oct/2017:15:19:54 +0200] "GET /vide/servlet/DeleteExecute HTTP/1.1" 302 -
0:0:0:0:0:0:0:1 - - [25/Oct/2017:15:19:54 +0200] "GET /vide/servlet/Delete HTTP/1.1" 200 326
0:0:0:0:0:0:0:1 - - [25/Oct/2017:15:19:57 +0200] "GET /vide/servlet/DeleteExecute HTTP/1.1" 302 -
0:0:0:0:0:0:0:1 - - [25/Oct/2017:15:19:57 +0200] "GET /vide/servlet/Delete HTTP/1.1" 200 326
0:0:0:0:0:0:0:1 - - [25/Oct/2017:15:20:01 +0200] "GET /vide/servlet/Select?table=clients HTTP/1.1" 200 192256
0:0:0:0:0:0:0:1 - - [25/Oct/2017:15:20:50 +0200] "GET /vide/servlet/DeleteExecute?table=Clients&cle=%27Durand_2%27&select=vrai HTTP/1.1" 302 -
0:0:0:0:0:0:0:1 - - [25/Oct/2017:15:20:50 +0200] "GET /vide/servlet/Select?table=Clients HTTP/1.1" 200 192068
0:0:0:0:0:0:0:1 - - [25/Oct/2017:15:22:30 +0200] "GET /vide/servlet/Select?table=Clients HTTP/1.1" 200 192068
0:0:0:0:0:0:0:1 - - [25/Oct/2017:15:22:32 +0200] "GET /vide/servlet/DeleteExecute HTTP/1.1" 302 -
0:0:0:0:0:0:0:1 - - [25/Oct/2017:15:22:32 +0200] "GET /vide/servlet/Delete HTTP/1.1" 200 326
0:0:0:0:0:0:0:1 - - [25/Oct/2017:15:23:03 +0200] "GET /vide/servlet/Select?table=Clients HTTP/1.1" 200 192068
0:0:0:0:0:0:0:1 - - [25/Oct/2017:15:23:09 +0200] "GET /vide/servlet/Select?table=Clients HTTP/1.1" 200 192068
0:0:0:0:0:0:0:1 - - [25/Oct/2017:15:23:51 +0200] "GET /vide/servlet/Select?table=Clients HTTP/1.1" 200 192068
0:0:0:0:0:0:0:1 - - [25/Oct/2017:15:24:47 +0200] "GET /vide/servlet/DeleteExecute?table=Clients&cle=%27Durand_5%27&select=vrai HTTP/1.1" 302 -
0:0:0:0:0:0:0:1 - - [25/Oct/2017:15:24:47 +0200] "GET /vide/servlet/Select?table=Clients HTTP/1.1" 200 191880
0:0:0:0:0:0:0:1 - - [25/Oct/2017:15:25:30 +0200] "GET /vide/servlet/Select?table=Clients HTTP/1.1" 200 199848
0:0:0:0:0:0:0:1 - - [25/Oct/2017:15:25:31 +0200] "GET /vide/servlet/servlet/DeleteExecute HTTP/1.1" 404 1073
0:0:0:0:0:0:0:1 - - [25/Oct/2017:15:25:48 +0200] "GET /vide/servlet/Select?table=Clients HTTP/1.1" 200 199848
0:0:0:0:0:0:0:1 - - [25/Oct/2017:15:25:50 +0200] "GET /vide/servlet/servlet/DeleteExecute HTTP/1.1" 404 1073
0:0:0:0:0:0:0:1 - - [25/Oct/2017:15:25:54 +0200] "GET /vide/servlet/servlet/DeleteExecute HTTP/1.1" 404 1073
0:0:0:0:0:0:0:1 - - [25/Oct/2017:15:26:01 +0200] "GET /vide/servlet/Select?table=Clients HTTP/1.1" 200 191880
0:0:0:0:0:0:0:1 - - [25/Oct/2017:15:26:03 +0200] "GET /vide/servlet/Select?table=Clients HTTP/1.1" 200 191880
0:0:0:0:0:0:0:1 - - [25/Oct/2017:15:26:04 +0200] "GET /vide/servlet/DeleteExecute HTTP/1.1" 302 -
0:0:0:0:0:0:0:1 - - [25/Oct/2017:15:26:04 +0200] "GET /vide/servlet/Delete HTTP/1.1" 200 326
0:0:0:0:0:0:0:1 - - [25/Oct/2017:15:26:07 +0200] "GET /vide/servlet/DeleteExecute HTTP/1.1" 302 -
0:0:0:0:0:0:0:1 - - [25/Oct/2017:15:26:07 +0200] "GET /vide/servlet/Delete HTTP/1.1" 200 326
0:0:0:0:0:0:0:1 - - [25/Oct/2017:15:29:44 +0200] "GET /vide/servlet/Select?table=Clients HTTP/1.1" 200 122159
0:0:0:0:0:0:0:1 - - [25/Oct/2017:15:29:45 +0200] "GET /vide/servlet/Select?table=Clients HTTP/1.1" 200 122159
0:0:0:0:0:0:0:1 - - [25/Oct/2017:15:30:27 +0200] "GET /vide/servlet/Select?table=Clients HTTP/1.1" 200 128137
0:0:0:0:0:0:0:1 - - [25/Oct/2017:15:30:29 +0200] "GET /vide/servlet/'DeleteExecute?table=Clients&cle=Durand_4 HTTP/1.1" 404 1059
0:0:0:0:0:0:0:1 - - [25/Oct/2017:15:30:40 +0200] "GET /vide/servlet/'DeleteExecute?table=Clients&cle=Durand_4 HTTP/1.1" 404 1059
0:0:0:0:0:0:0:1 - - [25/Oct/2017:15:30:42 +0200] "GET /vide/servlet/'DeleteExecute?table=Clients&cle=Durand_4 HTTP/1.1" 404 1059
0:0:0:0:0:0:0:1 - - [25/Oct/2017:15:30:46 +0200] "GET /vide/servlet/Select?table=Clients HTTP/1.1" 200 127142
0:0:0:0:0:0:0:1 - - [25/Oct/2017:15:31:11 +0200] "GET /vide/servlet/Select?table=Clients HTTP/1.1" 200 127142
0:0:0:0:0:0:0:1 - - [25/Oct/2017:15:31:12 +0200] "GET /vide/servlet/Select?table=Clients HTTP/1.1" 200 127142
0:0:0:0:0:0:0:1 - - [25/Oct/2017:15:31:12 +0200] "GET /vide/servlet/Select?table=Clients HTTP/1.1" 200 127142
0:0:0:0:0:0:0:1 - - [25/Oct/2017:15:31:13 +0200] "GET /vide/servlet/Select?table=Clients HTTP/1.1" 200 127142
0:0:0:0:0:0:0:1 - - [25/Oct/2017:15:31:14 +0200] "GET /vide/servlet/Select?table=Clients HTTP/1.1" 200 127142
0:0:0:0:0:0:0:1 - - [25/Oct/2017:15:31:15 +0200] "GET /vide/servlet/DeleteExecute?table=Clients&cle=Durand_4 HTTP/1.1" 302 -
0:0:0:0:0:0:0:1 - - [25/Oct/2017:15:31:15 +0200] "GET /vide/servlet/Select?table=Clients HTTP/1.1" 200 127142
0:0:0:0:0:0:0:1 - - [25/Oct/2017:15:31:17 +0200] "GET /vide/servlet/DeleteExecute?table=Clients&cle=Durand_4 HTTP/1.1" 302 -
0:0:0:0:0:0:0:1 - - [25/Oct/2017:15:31:17 +0200] "GET /vide/servlet/Select?table=Clients HTTP/1.1" 200 127142
0:0:0:0:0:0:0:1 - - [25/Oct/2017:15:31:18 +0200] "GET /vide/servlet/DeleteExecute?table=Clients&cle=Durand_4 HTTP/1.1" 302 -
0:0:0:0:0:0:0:1 - - [25/Oct/2017:15:31:18 +0200] "GET /vide/servlet/Select?table=Clients HTTP/1.1" 200 127142
0:0:0:0:0:0:0:1 - - [25/Oct/2017:15:31:19 +0200] "GET /vide/servlet/DeleteExecute?table=Clients&cle=Durand_4 HTTP/1.1" 302 -
0:0:0:0:0:0:0:1 - - [25/Oct/2017:15:31:19 +0200] "GET /vide/servlet/Select?table=Clients HTTP/1.1" 200 127142
0:0:0:0:0:0:0:1 - - [25/Oct/2017:15:31:20 +0200] "GET /vide/servlet/DeleteExecute?table=Clients&cle=Durand_4 HTTP/1.1" 302 -
0:0:0:0:0:0:0:1 - - [25/Oct/2017:15:31:20 +0200] "GET /vide/servlet/Select?table=Clients HTTP/1.1" 200 127142
0:0:0:0:0:0:0:1 - - [25/Oct/2017:15:31:21 +0200] "GET /vide/servlet/DeleteExecute?table=Clients&cle=Durand_4 HTTP/1.1" 302 -
0:0:0:0:0:0:0:1 - - [25/Oct/2017:15:31:21 +0200] "GET /vide/servlet/Select?table=Clients HTTP/1.1" 200 127142
0:0:0:0:0:0:0:1 - - [25/Oct/2017:15:31:21 +0200] "GET /vide/servlet/DeleteExecute?table=Clients&cle=Durand_4 HTTP/1.1" 302 -
0:0:0:0:0:0:0:1 - - [25/Oct/2017:15:31:21 +0200] "GET /vide/servlet/Select?table=Clients HTTP/1.1" 200 127142
0:0:0:0:0:0:0:1 - - [25/Oct/2017:15:31:22 +0200] "GET /vide/servlet/DeleteExecute?table=Clients&cle=Durand_4 HTTP/1.1" 302 -
0:0:0:0:0:0:0:1 - - [25/Oct/2017:15:31:22 +0200] "GET /vide/servlet/Select?table=Clients HTTP/1.1" 200 127142
0:0:0:0:0:0:0:1 - - [25/Oct/2017:15:31:22 +0200] "GET /vide/servlet/DeleteExecute?table=Clients&cle=Durand_4 HTTP/1.1" 302 -
0:0:0:0:0:0:0:1 - - [25/Oct/2017:15:31:22 +0200] "GET /vide/servlet/Select?table=Clients HTTP/1.1" 200 127142
0:0:0:0:0:0:0:1 - - [25/Oct/2017:15:31:45 +0200] "GET /vide/servlet/Select?table=Clients HTTP/1.1" 200 127142
0:0:0:0:0:0:0:1 - - [25/Oct/2017:15:31:46 +0200] "GET /vide/servlet/Select?table=Clients HTTP/1.1" 200 127142
0:0:0:0:0:0:0:1 - - [25/Oct/2017:15:31:46 +0200] "GET /vide/servlet/Select?table=Clients HTTP/1.1" 200 127142
0:0:0:0:0:0:0:1 - - [25/Oct/2017:15:31:46 +0200] "GET /vide/servlet/Select?table=Clients HTTP/1.1" 200 127142
0:0:0:0:0:0:0:1 - - [25/Oct/2017:15:31:48 +0200] "GET /vide/servlet/DeleteExecute?table=Clients&cle=Durand_4 HTTP/1.1" 302 -
0:0:0:0:0:0:0:1 - - [25/Oct/2017:15:31:48 +0200] "GET /vide/servlet/Select?table=Clients HTTP/1.1" 200 127142
0:0:0:0:0:0:0:1 - - [25/Oct/2017:15:31:49 +0200] "GET /vide/servlet/DeleteExecute?table=Clients&cle=Durand_4 HTTP/1.1" 302 -
0:0:0:0:0:0:0:1 - - [25/Oct/2017:15:31:49 +0200] "GET /vide/servlet/Select?table=Clients HTTP/1.1" 200 127142
0:0:0:0:0:0:0:1 - - [25/Oct/2017:15:32:01 +0200] "GET /vide/servlet/Select?table=Clients HTTP/1.1" 200 129132
0:0:0:0:0:0:0:1 - - [25/Oct/2017:15:32:02 +0200] "GET /vide/servlet/DeleteExecute?table=Clients&cle= HTTP/1.1" 302 -
0:0:0:0:0:0:0:1 - - [25/Oct/2017:15:32:02 +0200] "GET /vide/servlet/Select?table=Clients HTTP/1.1" 200 129132
0:0:0:0:0:0:0:1 - - [25/Oct/2017:15:32:04 +0200] "GET /vide/servlet/DeleteExecute?table=Clients&cle= HTTP/1.1" 302 -
0:0:0:0:0:0:0:1 - - [25/Oct/2017:15:32:04 +0200] "GET /vide/servlet/Select?table=Clients HTTP/1.1" 200 129132
0:0:0:0:0:0:0:1 - - [25/Oct/2017:15:33:28 +0200] "GET /vide/servlet/Select?table=Clients HTTP/1.1" 200 127142
0:0:0:0:0:0:0:1 - - [25/Oct/2017:15:33:32 +0200] "GET /vide/servlet/Select?table=Clients HTTP/1.1" 200 129132
0:0:0:0:0:0:0:1 - - [25/Oct/2017:15:33:33 +0200] "GET /vide/servlet/DeleteExecute?table=Clients&cle=%27Durand_4%27 HTTP/1.1" 302 -
0:0:0:0:0:0:0:1 - - [25/Oct/2017:15:33:33 +0200] "GET /vide/servlet/Select?table=Clients HTTP/1.1" 200 129007
0:0:0:0:0:0:0:1 - - [25/Oct/2017:15:59:54 +0200] "GET /vide/servlet/DeleteExecute?table=Clients&cle=%27Durand_6%27 HTTP/1.1" 302 -
0:0:0:0:0:0:0:1 - - [25/Oct/2017:15:59:54 +0200] "GET /vide/servlet/Select?table=Clients HTTP/1.1" 200 128882
0:0:0:0:0:0:0:1 - - [25/Oct/2017:15:59:55 +0200] "GET /vide/servlet/DeleteExecute?table=Clients&cle=%27Durand_7%27 HTTP/1.1" 302 -
0:0:0:0:0:0:0:1 - - [25/Oct/2017:15:59:55 +0200] "GET /vide/servlet/Select?table=Clients HTTP/1.1" 200 128757
0:0:0:0:0:0:0:1 - - [25/Oct/2017:15:59:55 +0200] "GET /vide/servlet/DeleteExecute?table=Clients&cle=%27Durand_8%27 HTTP/1.1" 302 -
0:0:0:0:0:0:0:1 - - [25/Oct/2017:15:59:55 +0200] "GET /vide/servlet/Select?table=Clients HTTP/1.1" 200 128632
0:0:0:0:0:0:0:1 - - [25/Oct/2017:15:59:56 +0200] "GET /vide/servlet/DeleteExecute?table=Clients&cle=%27Durand_9%27 HTTP/1.1" 302 -
0:0:0:0:0:0:0:1 - - [25/Oct/2017:15:59:56 +0200] "GET /vide/servlet/Select?table=Clients HTTP/1.1" 200 128507
0:0:0:0:0:0:0:1 - - [25/Oct/2017:16:08:22 +0200] "GET /vide/servlet/SaisieUpdate HTTP/1.1" 404 1055
0:0:0:0:0:0:0:1 - - [25/Oct/2017:16:08:32 +0200] "GET /vide/servlet/UpdateSaisie HTTP/1.1" 200 219
0:0:0:0:0:0:0:1 - - [25/Oct/2017:16:14:41 +0200] "GET /vide/servlet/Saisie?table=Clients&cle= HTTP/1.1" 404 1043
0:0:0:0:0:0:0:1 - - [25/Oct/2017:16:15:00 +0200] "GET /vide/servlet/UpdateSaisie HTTP/1.1" 200 219
0:0:0:0:0:0:0:1 - - [25/Oct/2017:16:15:01 +0200] "GET /vide/servlet/Saisie?table=Clients&cle= HTTP/1.1" 404 1043
0:0:0:0:0:0:0:1 - - [25/Oct/2017:16:15:03 +0200] "GET /vide/servlet/Saisie?table=Clients&cle= HTTP/1.1" 404 1043
0:0:0:0:0:0:0:1 - - [25/Oct/2017:16:15:07 +0200] "GET /vide/servlet/Saisie?table=Clients&cle= HTTP/1.1" 404 1043
0:0:0:0:0:0:0:1 - - [25/Oct/2017:16:15:22 +0200] "GET /vide/servlet/Saisie?table=Clients&cle= HTTP/1.1" 404 1043
0:0:0:0:0:0:0:1 - - [25/Oct/2017:16:15:37 +0200] "GET /vide/servlet/UpdateSaisie HTTP/1.1" 200 219
0:0:0:0:0:0:0:1 - - [25/Oct/2017:16:15:37 +0200] "GET /vide/servlet/UpdateSaisie HTTP/1.1" 200 219
0:0:0:0:0:0:0:1 - - [25/Oct/2017:16:15:38 +0200] "GET /vide/servlet/Update?table=Clients&cle= HTTP/1.1" 500 1852
0:0:0:0:0:0:0:1 - - [25/Oct/2017:16:16:34 +0200] "GET /vide/servlet/Update?table=Clients&cle= HTTP/1.1" 500 1801
0:0:0:0:0:0:0:1 - - [25/Oct/2017:16:16:36 +0200] "GET /vide/servlet/Update?table=Clients&cle= HTTP/1.1" 500 1801
0:0:0:0:0:0:0:1 - - [25/Oct/2017:16:16:50 +0200] "GET /vide/servlet/Update?table=Clients&cle= HTTP/1.1" 200 -
0:0:0:0:0:0:0:1 - - [25/Oct/2017:16:18:00 +0200] "GET /vide/servlet/Update?table=Clients&cle= HTTP/1.1" 200 -
0:0:0:0:0:0:0:1 - - [25/Oct/2017:16:18:24 +0200] "GET /vide/servlet/Update?table=Clients&cle= HTTP/1.1" 200 39
0:0:0:0:0:0:0:1 - - [25/Oct/2017:16:20:05 +0200] "GET /vide/servlet/Update?table=Clients&cle= HTTP/1.1" 200 150
0:0:0:0:0:0:0:1 - - [25/Oct/2017:16:20:41 +0200] "GET /vide/servlet/Update?table=Clients&cle= HTTP/1.1" 200 99
0:0:0:0:0:0:0:1 - - [25/Oct/2017:16:21:43 +0200] "GET /vide/servlet/Update?table=Clients&cle= HTTP/1.1" 200 141
0:0:0:0:0:0:0:1 - - [25/Oct/2017:16:27:59 +0200] "GET /vide/servlet/Update?table=Clients&cle= HTTP/1.1" 200 141
0:0:0:0:0:0:0:1 - - [25/Oct/2017:16:28:02 +0200] "GET /vide/servlet/Update?table=Clients&cle= HTTP/1.1" 200 141
0:0:0:0:0:0:0:1 - - [25/Oct/2017:16:28:09 +0200] "GET /vide/servlet/Select?table=clients HTTP/1.1" 200 128507
0:0:0:0:0:0:0:1 - - [25/Oct/2017:16:28:15 +0200] "GET /vide/servlet/Update?table=Clients&cle= HTTP/1.1" 200 141
0:0:0:0:0:0:0:1 - - [25/Oct/2017:16:37:31 +0200] "GET /vide/servlet/Update?table=Clients&cle= HTTP/1.1" 200 251
0:0:0:0:0:0:0:1 - - [25/Oct/2017:16:37:31 +0200] "GET /vide/servlet/Update?table=Clients&cle= HTTP/1.1" 200 251
0:0:0:0:0:0:0:1 - - [25/Oct/2017:16:37:32 +0200] "GET /vide/servlet/Update?table=Clients&cle= HTTP/1.1" 200 251
0:0:0:0:0:0:0:1 - - [25/Oct/2017:16:37:32 +0200] "GET /vide/servlet/Update?table=Clients&cle= HTTP/1.1" 200 251
0:0:0:0:0:0:0:1 - - [25/Oct/2017:16:39:19 +0200] "GET /vide/servlet/Update?table=Clients&cle= HTTP/1.1" 200 288
0:0:0:0:0:0:0:1 - - [25/Oct/2017:16:39:20 +0200] "GET /vide/servlet/Update?table=Clients&cle= HTTP/1.1" 200 288
0:0:0:0:0:0:0:1 - - [25/Oct/2017:16:39:20 +0200] "GET /vide/servlet/Update?table=Clients&cle= HTTP/1.1" 200 288
0:0:0:0:0:0:0:1 - - [25/Oct/2017:16:39:21 +0200] "GET /vide/servlet/Update?table=Clients&cle= HTTP/1.1" 200 288
0:0:0:0:0:0:0:1 - - [25/Oct/2017:16:39:24 +0200] "GET /vide/servlet/Update?table=Clients&cle= HTTP/1.1" 200 288
0:0:0:0:0:0:0:1 - - [25/Oct/2017:16:39:25 +0200] "GET /vide/servlet/Update?table=Clients&cle= HTTP/1.1" 200 288
0:0:0:0:0:0:0:1 - - [25/Oct/2017:16:39:25 +0200] "GET /vide/servlet/Update?table=Clients&cle= HTTP/1.1" 200 288
0:0:0:0:0:0:0:1 - - [25/Oct/2017:16:39:25 +0200] "GET /vide/servlet/Update?table=Clients&cle= HTTP/1.1" 200 288
0:0:0:0:0:0:0:1 - - [25/Oct/2017:16:39:26 +0200] "GET /vide/servlet/Update?table=Clients&cle= HTTP/1.1" 200 288
0:0:0:0:0:0:0:1 - - [25/Oct/2017:16:39:26 +0200] "GET /vide/servlet/Update?table=Clients&cle= HTTP/1.1" 200 288
0:0:0:0:0:0:0:1 - - [25/Oct/2017:16:39:26 +0200] "GET /vide/servlet/Update?table=Clients&cle= HTTP/1.1" 200 288
0:0:0:0:0:0:0:1 - - [25/Oct/2017:16:39:26 +0200] "GET /vide/servlet/Update?table=Clients&cle= HTTP/1.1" 200 288
0:0:0:0:0:0:0:1 - - [25/Oct/2017:16:39:26 +0200] "GET /vide/servlet/Update?table=Clients&cle= HTTP/1.1" 200 288
0:0:0:0:0:0:0:1 - - [25/Oct/2017:16:39:26 +0200] "GET /vide/servlet/Update?table=Clients&cle= HTTP/1.1" 200 288
0:0:0:0:0:0:0:1 - - [25/Oct/2017:16:39:27 +0200] "GET /vide/servlet/Update?table=Clients&cle= HTTP/1.1" 200 288
0:0:0:0:0:0:0:1 - - [25/Oct/2017:16:39:27 +0200] "GET /vide/servlet/Update?table=Clients&cle= HTTP/1.1" 200 288
0:0:0:0:0:0:0:1 - - [25/Oct/2017:16:39:27 +0200] "GET /vide/servlet/Update?table=Clients&cle= HTTP/1.1" 200 288
0:0:0:0:0:0:0:1 - - [25/Oct/2017:16:39:32 +0200] "GET /vide/servlet/Update?table=Clients&cle= HTTP/1.1" 200 288
0:0:0:0:0:0:0:1 - - [25/Oct/2017:16:39:32 +0200] "GET /vide/servlet/Update?table=Clients&cle= HTTP/1.1" 200 288
0:0:0:0:0:0:0:1 - - [25/Oct/2017:16:39:32 +0200] "GET /vide/servlet/Update?table=Clients&cle= HTTP/1.1" 200 288
0:0:0:0:0:0:0:1 - - [25/Oct/2017:16:39:32 +0200] "GET /vide/servlet/Update?table=Clients&cle= HTTP/1.1" 200 288
0:0:0:0:0:0:0:1 - - [25/Oct/2017:16:39:33 +0200] "GET /vide/servlet/Update?table=Clients&cle= HTTP/1.1" 200 288
0:0:0:0:0:0:0:1 - - [25/Oct/2017:16:39:50 +0200] "GET /vide/servlet/UpdateSaisie HTTP/1.1" 200 219
0:0:0:0:0:0:0:1 - - [25/Oct/2017:16:39:54 +0200] "GET /vide/servlet/Update?table=Clients&cle= HTTP/1.1" 200 288
0:0:0:0:0:0:0:1 - - [25/Oct/2017:16:40:27 +0200] "GET /vide/servlet/Update?table=Clients&cle= HTTP/1.1" 200 288
0:0:0:0:0:0:0:1 - - [25/Oct/2017:16:40:29 +0200] "GET /vide/servlet/UpdateExecute?Durand_10=Durand_10&paul=paul&10=10 HTTP/1.1" 404 1057
0:0:0:0:0:0:0:1 - - [25/Oct/2017:16:41:04 +0200] "GET /vide/servlet/Update?table=Clients&cle= HTTP/1.1" 200 288
0:0:0:0:0:0:0:1 - - [25/Oct/2017:16:41:06 +0200] "GET /vide/servlet/Update?table=Clients&cle= HTTP/1.1" 200 288
0:0:0:0:0:0:0:1 - - [25/Oct/2017:16:41:06 +0200] "GET /vide/servlet/Update?table=Clients&cle= HTTP/1.1" 200 288
0:0:0:0:0:0:0:1 - - [25/Oct/2017:16:41:07 +0200] "GET /vide/servlet/Update?table=Clients&cle= HTTP/1.1" 200 288
0:0:0:0:0:0:0:1 - - [25/Oct/2017:16:41:07 +0200] "GET /vide/servlet/Update?table=Clients&cle= HTTP/1.1" 200 288
0:0:0:0:0:0:0:1 - - [25/Oct/2017:16:41:07 +0200] "GET /vide/servlet/Update?table=Clients&cle= HTTP/1.1" 200 288
0:0:0:0:0:0:0:1 - - [25/Oct/2017:16:41:07 +0200] "GET /vide/servlet/Update?table=Clients&cle= HTTP/1.1" 200 288
0:0:0:0:0:0:0:1 - - [25/Oct/2017:16:41:07 +0200] "GET /vide/servlet/Update?table=Clients&cle= HTTP/1.1" 200 288
0:0:0:0:0:0:0:1 - - [25/Oct/2017:16:41:08 +0200] "GET /vide/servlet/Update?table=Clients&cle= HTTP/1.1" 200 288
0:0:0:0:0:0:0:1 - - [25/Oct/2017:16:41:09 +0200] "GET /vide/servlet/Update?table=Clients&cle= HTTP/1.1" 200 286
0:0:0:0:0:0:0:1 - - [25/Oct/2017:16:41:11 +0200] "GET /vide/servlet/UpdateExecute?Durand_10=Durand_10&paul=paul&10=10 HTTP/1.1" 404 1057
0:0:0:0:0:0:0:1 - - [25/Oct/2017:16:41:29 +0200] "GET /vide/servlet/Update?table=Clients&cle= HTTP/1.1" 200 286
0:0:0:0:0:0:0:1 - - [25/Oct/2017:16:41:29 +0200] "GET /vide/servlet/Update?table=Clients&cle= HTTP/1.1" 200 286
0:0:0:0:0:0:0:1 - - [25/Oct/2017:16:42:04 +0200] "GET /vide/servlet/Update?table=Clients&cle= HTTP/1.1" 200 286
0:0:0:0:0:0:0:1 - - [25/Oct/2017:16:42:05 +0200] "GET /vide/servlet/Update?table=Clients&cle= HTTP/1.1" 200 286
0:0:0:0:0:0:0:1 - - [25/Oct/2017:16:42:05 +0200] "GET /vide/servlet/Update?table=Clients&cle= HTTP/1.1" 200 286
0:0:0:0:0:0:0:1 - - [25/Oct/2017:16:42:05 +0200] "GET /vide/servlet/Update?table=Clients&cle= HTTP/1.1" 200 286
0:0:0:0:0:0:0:1 - - [25/Oct/2017:16:44:27 +0200] "GET /vide/servlet/Update?table=Clients&cle= HTTP/1.1" 200 287
0:0:0:0:0:0:0:1 - - [25/Oct/2017:16:44:28 +0200] "GET /vide/servlet/Update?table=Clients&cle= HTTP/1.1" 200 287
0:0:0:0:0:0:0:1 - - [25/Oct/2017:16:44:29 +0200] "GET /vide/servlet/UpdateExecute?Durand_10=Durand_10&paul=paul&10=10&colone=nom%23prenom%23age%23 HTTP/1.1" 404 1057
0:0:0:0:0:0:0:1 - - [25/Oct/2017:16:45:17 +0200] "GET /vide/servlet/Update?table=Clients&cle= HTTP/1.1" 200 287
0:0:0:0:0:0:0:1 - - [25/Oct/2017:16:45:18 +0200] "GET /vide/servlet/Update?table=Clients&cle= HTTP/1.1" 200 287
0:0:0:0:0:0:0:1 - - [25/Oct/2017:16:45:18 +0200] "GET /vide/servlet/Update?table=Clients&cle= HTTP/1.1" 200 287
0:0:0:0:0:0:0:1 - - [25/Oct/2017:16:45:18 +0200] "GET /vide/servlet/Update?table=Clients&cle= HTTP/1.1" 200 287
0:0:0:0:0:0:0:1 - - [25/Oct/2017:16:45:19 +0200] "GET /vide/servlet/Update?table=Clients&cle= HTTP/1.1" 200 287
0:0:0:0:0:0:0:1 - - [25/Oct/2017:16:45:19 +0200] "GET /vide/servlet/Update?table=Clients&cle= HTTP/1.1" 200 289
0:0:0:0:0:0:0:1 - - [25/Oct/2017:16:45:19 +0200] "GET /vide/servlet/Update?table=Clients&cle= HTTP/1.1" 200 289
0:0:0:0:0:0:0:1 - - [25/Oct/2017:16:45:20 +0200] "GET /vide/servlet/UpdateExecute?Durand_10=Durand_10&paul=paul&10=10&colone=nom%23prenom%23age%23 HTTP/1.1" 404 1057
0:0:0:0:0:0:0:1 - - [25/Oct/2017:16:45:23 +0200] "GET /vide/servlet/UpdateExecute?Durand_10=Durand_10&paul=paul&10=10&colone=nom%23prenom%23age%23 HTTP/1.1" 404 1057
0:0:0:0:0:0:0:1 - - [25/Oct/2017:16:48:12 +0200] "GET /vide/servlet/UpdateSaisie HTTP/1.1" 200 219
0:0:0:0:0:0:0:1 - - [25/Oct/2017:16:48:22 +0200] "GET /vide/servlet/Update?table=Clients&cle=salut HTTP/1.1" 200 289
0:0:0:0:0:0:0:1 - - [25/Oct/2017:16:48:39 +0200] "GET /vide/servlet/Update?table=Clients&cle=salut HTTP/1.1" 200 -
0:0:0:0:0:0:0:1 - - [25/Oct/2017:16:48:40 +0200] "GET /vide/servlet/Update?table=Clients&cle=salut HTTP/1.1" 200 -
0:0:0:0:0:0:0:1 - - [25/Oct/2017:16:48:51 +0200] "GET /vide/servlet/Update?table=Clients&cle=%27Durand_10%27 HTTP/1.1" 200 -
0:0:0:0:0:0:0:1 - - [25/Oct/2017:16:49:11 +0200] "GET /vide/servlet/Update?table=Clients&cle=%27Durand_10%27 HTTP/1.1" 200 -
0:0:0:0:0:0:0:1 - - [25/Oct/2017:16:49:13 +0200] "GET /vide/servlet/Update?table=Clients&cle=%27Durand_10%27 HTTP/1.1" 200 -
0:0:0:0:0:0:0:1 - - [25/Oct/2017:16:49:17 +0200] "GET /vide/servlet/Update?table=Clients&cle=%27Durand_10%27 HTTP/1.1" 200 -
0:0:0:0:0:0:0:1 - - [25/Oct/2017:16:49:40 +0200] "GET /vide/servlet/Update?table=Clients&cle=%27Durand_10%27 HTTP/1.1" 200 -
0:0:0:0:0:0:0:1 - - [25/Oct/2017:16:49:42 +0200] "GET /vide/servlet/Update?table=Clients&cle=%27Durand_10%27 HTTP/1.1" 200 -
0:0:0:0:0:0:0:1 - - [25/Oct/2017:16:50:33 +0200] "GET /vide/servlet/Update?table=Clients&cle=%27Durand_10%27 HTTP/1.1" 500 1794
0:0:0:0:0:0:0:1 - - [25/Oct/2017:16:50:51 +0200] "GET /vide/servlet/Update?table=Clients&cle=%27Durand_10%27 HTTP/1.1" 200 -
0:0:0:0:0:0:0:1 - - [25/Oct/2017:16:52:02 +0200] "GET /vide/servlet/Update?table=Clients&cle=%27Durand_10%27 HTTP/1.1" 200 289
0:0:0:0:0:0:0:1 - - [25/Oct/2017:16:52:05 +0200] "GET /vide/servlet/Update?table=Clients&cle=%27Durand_10%27 HTTP/1.1" 200 289
0:0:0:0:0:0:0:1 - - [25/Oct/2017:16:52:11 +0200] "GET /vide/servlet/Update?table=Clients&cle=fer HTTP/1.1" 200 -
0:0:0:0:0:0:0:1 - - [25/Oct/2017:16:53:00 +0200] "GET /vide/servlet/Update?table=Clients&cle=fz HTTP/1.1" 302 -
0:0:0:0:0:0:0:1 - - [25/Oct/2017:16:53:00 +0200] "GET /vide/servlet/UpdateSaisie HTTP/1.1" 200 219
0:0:0:0:0:0:0:1 - - [25/Oct/2017:16:53:07 +0200] "GET /vide/servlet/Update?table=Clients&cle=%27Durand_10%27 HTTP/1.1" 200 289
0:0:0:0:0:0:0:1 - - [25/Oct/2017:16:53:28 +0200] "GET /vide/servlet/UpdateExecute?Durand_10=Durand_10&paul=thibaut&10=10&colone=nom%23prenom%23age%23 HTTP/1.1" 404 1057
0:0:0:0:0:0:0:1 - - [25/Oct/2017:16:56:19 +0200] "GET /vide/servlet/UpdateExecute?Durand_10=Durand_10&paul=thibaut&10=10&colone=nom%23prenom%23age%23 HTTP/1.1" 404 1057
0:0:0:0:0:0:0:1 - - [25/Oct/2017:16:56:35 +0200] "GET /vide/servlet/UpdateExecute?Durand_10=Durand_10&paul=thibaut&10=10&colone=nom%23prenom%23age%23 HTTP/1.1" 404 1057
0:0:0:0:0:0:0:1 - - [25/Oct/2017:17:00:31 +0200] "GET /vide/servlet/Update?table=Clients&cle=%27Durand_10%27 HTTP/1.1" 200 289
