<?xml version="1.0" encoding="UTF-8"?>
<session version="1.0">
<refactoring comment="Delete resource &apos;CalcRestDemo&apos;" deleteContents="false" description="Delete resource &apos;CalcRestDemo&apos;" element1="/CalcRestDemo" flags="7" id="org.eclipse.ltk.core.refactoring.delete.resources" resources="1" stamp="1425891211006"/>
</session>